<?xml version="1.0" standalone="no"?>
<!DOCTYPE svg PUBLIC "-//W3C//DTD SVG 1.1//EN" "http://www.w3.org/Graphics/SVG/1.1/DTD/svg11.dtd" >
<svg>
<metadata>
Created by FontForge 20120731 at Mon Feb  1 21:38:02 2016
 By ,,,
Copyright 1990-1992 Bitstream Inc.  All rights reserved.
</metadata>
<defs>
<font id="Swiss721BT-Bold" horiz-adv-x="1024" >
  <font-face 
    font-family="Swis721 BT"
    font-weight="700"
    font-stretch="normal"
    units-per-em="2048"
    panose-1="2 11 7 4 2 2 2 2 2 4"
    ascent="1638"
    descent="-410"
    x-height="1087"
    cap-height="1473"
    bbox="-346 -483 2566 1972"
    underline-thickness="221"
    underline-position="-107"
    unicode-range="U+0020-F002"
  />
<missing-glyph horiz-adv-x="1229" 
d="M102 -362v1806h1024v-1806h-1024zM217 -248h795v1577h-795v-1577z" />
    <glyph glyph-name=".notdef" horiz-adv-x="1229" 
d="M102 -362v1806h1024v-1806h-1024zM217 -248h795v1577h-795v-1577z" />
    <glyph glyph-name=".null" horiz-adv-x="0" 
 />
    <glyph glyph-name="nonmarkingreturn" horiz-adv-x="582" 
 />
    <glyph glyph-name="space" unicode=" " horiz-adv-x="582" 
 />
    <glyph glyph-name="exclam" unicode="!" horiz-adv-x="676" 
d="M262 410l-78 663v400h308v-400l-78 -663h-152zM188 0v295h297v-295h-297z" />
    <glyph glyph-name="quotedbl" unicode="&#x22;" horiz-adv-x="678" 
d="M406 1438h192v-559h-192v559zM80 1438h192v-559h-192v559z" />
    <glyph glyph-name="numbersign" unicode="#" horiz-adv-x="1575" 
d="M709 848l-88 -244h251l86 244h-249zM709 1464h221l-146 -415h242l148 415h221l-148 -415h283l-74 -201h-280l-84 -242h290l-71 -200h-291l-148 -416h-221l148 416h-244l-149 -416h-220l146 416h-287l76 200h282l86 242h-299l74 201h297z" />
    <glyph glyph-name="dollar" unicode="$" horiz-adv-x="1161" 
d="M641 186q82 11 125 59t43 128q0 71 -40.5 117.5t-127.5 72.5v-377zM522 870v340q-78 -10 -119 -53.5t-41 -116.5q0 -61 38.5 -102t121.5 -68zM522 -225v192q-226 14 -338 131t-112 338h268q5 -108 50.5 -170.5t131.5 -79.5v414q-232 59 -330 154t-98 260q0 183 116.5 295
t311.5 117v128h119v-128q195 -10 304 -117.5t120 -302.5h-272q-7 93 -44.5 142.5t-107.5 55.5v-364q247 -77 348 -176t101 -261q0 -191 -117.5 -305t-331.5 -133v-190h-119z" />
    <glyph glyph-name="percent" unicode="%" horiz-adv-x="1761" 
d="M1169 332q0 -67 45 -112.5t111 -45.5q64 0 110 46.5t46 111.5q0 64 -45.5 109.5t-110.5 45.5q-66 0 -111 -44.5t-45 -110.5zM952 332q0 156 108 263t265 107q154 0 262.5 -108.5t108.5 -261.5q0 -154 -109 -263.5t-262 -109.5q-157 0 -265 108t-108 265zM371 -41
l854 1473h161l-854 -1473h-161zM283 1059q0 -66 44.5 -111t110.5 -45q65 0 110.5 45.5t45.5 110.5q0 64 -45.5 109.5t-110.5 45.5q-66 0 -110.5 -44.5t-44.5 -110.5zM66 1059q0 156 108 264.5t264 108.5q154 0 262.5 -109.5t108.5 -263.5t-108.5 -262.5t-262.5 -108.5
q-157 0 -264.5 107t-107.5 264z" />
    <glyph glyph-name="ampersand" unicode="&#x26;" horiz-adv-x="1436" 
d="M553 643l-76 -55q-46 -32 -69 -77t-23 -101q0 -85 58 -143t145 -58q64 0 122.5 26.5t108.5 77.5zM633 958l35 25q48 33 71 74t23 94q0 51 -31.5 81t-85.5 30q-55 0 -87 -30.5t-32 -82.5q0 -28 15.5 -61t44.5 -70zM408 825l-58 76q-45 60 -64.5 112.5t-19.5 110.5
q0 160 102.5 254.5t278.5 94.5q169 0 267 -87t98 -235q0 -112 -57.5 -200.5t-180.5 -166.5l211 -260q30 49 47.5 110t24.5 136h260q-11 -130 -54 -241t-118 -203l268 -326h-340l-100 123q-88 -81 -193.5 -122.5t-220.5 -41.5q-204 0 -333.5 121t-129.5 309q0 140 72 241
t240 195z" />
    <glyph glyph-name="quotesingle" unicode="'" horiz-adv-x="352" 
d="M80 1438h192v-559h-192v559z" />
    <glyph glyph-name="parenleft" unicode="(" horiz-adv-x="758" 
d="M739 1473q-138 -226 -205 -460t-67 -491q0 -256 67 -490t205 -460h-211q-175 239 -265.5 480.5t-90.5 469.5t90.5 470t265.5 481h211z" />
    <glyph glyph-name="parenright" unicode=")" horiz-adv-x="758" 
d="M23 1473h213q174 -238 264 -479.5t90 -471.5q0 -229 -90 -471t-264 -479h-213q139 227 206.5 461.5t67.5 488.5q0 255 -67.5 489t-206.5 462z" />
    <glyph glyph-name="asterisk" unicode="*" 
d="M512 889l-176 -248l-170 119l192 241l-280 78l65 203l269 -96v287h198v-287l269 94l67 -203l-280 -76l190 -239l-174 -125z" />
    <glyph glyph-name="plus" unicode="+" horiz-adv-x="1706" 
d="M752 1221h202v-510h498v-199h-498v-512h-202v512h-498v199h498v510z" />
    <glyph glyph-name="comma" unicode="," horiz-adv-x="582" 
d="M139 -346v117q84 24 124 74t40 130v25h-164v301h303v-289q0 -149 -76.5 -240t-226.5 -118z" />
    <glyph glyph-name="hyphen" unicode="-" horiz-adv-x="684" 
d="M61 408v274h562v-274h-562z" />
    <glyph glyph-name="period" unicode="." horiz-adv-x="582" 
d="M139 0v301h301v-301h-301z" />
    <glyph glyph-name="slash" unicode="/" horiz-adv-x="649" 
d="M8 -190l496 1701h137l-498 -1701h-135z" />
    <glyph glyph-name="zero" unicode="0" horiz-adv-x="1161" 
d="M360 696q0 -261 52.5 -379t167.5 -118t168 119t53 378q0 260 -53 378t-168 118t-167.5 -117.5t-52.5 -378.5zM63 696q0 369 128.5 552.5t388.5 183.5q259 0 388.5 -184.5t129.5 -553.5t-128.5 -551t-389.5 -182q-260 0 -388.5 183t-128.5 552z" />
    <glyph glyph-name="one" unicode="1" horiz-adv-x="1161" 
d="M504 0v979h-342v201h22q187 0 272.5 58t100.5 194h229v-1432h-282z" />
    <glyph glyph-name="two" unicode="2" horiz-adv-x="1161" 
d="M48 0q2 192 82 325.5t284 270.5q31 21 90 58q270 173 270 333q0 95 -57 150t-156 55q-108 0 -166.5 -67.5t-58.5 -192.5v-12h-264q0 246 132 379t376 133q221 0 353 -120.5t132 -320.5q0 -143 -69 -248t-267 -239q-42 -29 -116 -76q-188 -121 -212 -184h650v-244h-1003z
" />
    <glyph glyph-name="three" unicode="3" horiz-adv-x="1161" 
d="M57 436h275q1 -120 58 -180.5t169 -60.5q108 0 166.5 56.5t58.5 162.5t-68.5 160.5t-203.5 54.5q-7 0 -21.5 -1t-21.5 -1v198h31q124 0 183.5 48.5t59.5 148.5q0 83 -50.5 131.5t-137.5 48.5q-95 0 -147 -56t-52 -159v-12h-270q5 220 129.5 337.5t351.5 117.5
q215 0 341 -105t126 -283q0 -94 -43 -165t-129 -117q110 -48 166.5 -132.5t56.5 -201.5q0 -215 -141 -341t-385 -126q-241 0 -371.5 122.5t-130.5 348.5v6z" />
    <glyph glyph-name="four" unicode="4" horiz-adv-x="1161" 
d="M657 530v613l-389 -613h389zM651 0v309h-604v252l528 830h355v-854h166v-228h-166v-309h-279z" />
    <glyph glyph-name="five" unicode="5" horiz-adv-x="1161" 
d="M52 385h280q7 -94 63 -145.5t150 -51.5q116 0 177.5 68t61.5 195q0 119 -63 187.5t-174 68.5q-62 0 -109 -25t-80 -74l-258 15l93 768h823v-242h-621l-37 -287q47 37 108 55.5t136 18.5q214 0 345.5 -130t131.5 -341q0 -231 -145 -368.5t-389 -137.5q-222 0 -353.5 113.5
t-139.5 312.5z" />
    <glyph glyph-name="six" unicode="6" horiz-adv-x="1161" 
d="M369 455q0 -123 61.5 -195t167.5 -72q99 0 155 70t56 195q0 115 -58 179t-163 64q-103 0 -161 -64t-58 -177zM365 829q49 50 118 75.5t154 25.5q210 0 336.5 -128t126.5 -341q0 -226 -138 -365t-364 -139q-261 0 -396.5 180t-135.5 527q0 373 145 570.5t418 197.5
q190 0 306.5 -99t127.5 -268h-290q-10 69 -54 104t-123 35q-108 0 -166 -93.5t-65 -281.5z" />
    <glyph glyph-name="seven" unicode="7" horiz-adv-x="1161" 
d="M569 0h-299q16 293 141.5 581t358.5 566h-704v244h1015v-215q-236 -260 -362.5 -550t-149.5 -626z" />
    <glyph glyph-name="eight" unicode="8" horiz-adv-x="1161" 
d="M356 416q0 -105 58.5 -162t167.5 -57q104 0 163.5 58t59.5 161q0 99 -61 159t-162 60t-163.5 -61t-62.5 -158zM379 1030q0 -83 52 -127.5t149 -44.5t149.5 45t52.5 127q0 80 -54 126t-148 46q-92 0 -146.5 -47t-54.5 -125zM276 752q-90 50 -130 117t-40 171
q0 184 126 289t348 105q224 0 350.5 -104.5t126.5 -289.5q0 -99 -43 -171.5t-129 -116.5q105 -49 158 -135.5t53 -210.5q0 -209 -137.5 -328t-378.5 -119q-244 0 -379 118t-135 329q0 123 50.5 206.5t159.5 139.5z" />
    <glyph glyph-name="nine" unicode="9" horiz-adv-x="1161" 
d="M786 934q0 123 -61.5 194.5t-167.5 71.5q-100 0 -155.5 -69t-55.5 -193q0 -116 58 -181t163 -65q103 0 161 64t58 178zM791 561q-50 -50 -118 -75t-153 -25q-211 0 -338 127t-127 340q0 226 138 365t364 139q262 0 398.5 -180.5t136.5 -526.5q0 -372 -146 -570t-420 -198
q-189 0 -305 98.5t-127 268.5l289 -1q10 -69 54 -103t124 -34q108 0 165 94t65 281z" />
    <glyph glyph-name="colon" unicode=":" horiz-adv-x="629" 
d="M162 766v303h303v-303h-303zM162 0v301h303v-301h-303z" />
    <glyph glyph-name="semicolon" unicode=";" horiz-adv-x="629" 
d="M164 766v303h301v-303h-301zM164 -346v117q84 24 124 74t40 130v25h-166v301h303v-289q0 -150 -76 -240.5t-225 -117.5z" />
    <glyph glyph-name="less" unicode="&#x3c;" horiz-adv-x="1706" 
d="M1442 1194v-219l-893 -365l893 -364v-219l-1178 485v199z" />
    <glyph glyph-name="equal" unicode="=" horiz-adv-x="1706" 
d="M254 496h1198v-199h-1198v199zM254 926h1198v-199h-1198v199z" />
    <glyph glyph-name="greater" unicode="&#x3e;" horiz-adv-x="1706" 
d="M264 1194l1178 -483v-199l-1178 -485v219l895 364l-895 365v219z" />
    <glyph glyph-name="question" unicode="?" horiz-adv-x="1143" 
d="M438 428q0 11 -1 29.5t-1 27.5q0 88 19 146.5t61 109.5q32 38 95.5 87t82.5 71q40 45 55 81t15 79q0 95 -53 148t-148 53t-149.5 -63.5t-59.5 -178.5h-282v31q0 211 133.5 336.5t359.5 125.5q231 0 367.5 -118.5t136.5 -317.5q0 -70 -15.5 -125.5t-47.5 -101.5
q-41 -58 -126.5 -125.5t-103.5 -83.5q-38 -37 -54.5 -78t-16.5 -98q0 -5 1 -17t1 -18h-269zM424 0v293h295v-293h-295z" />
    <glyph glyph-name="at" unicode="@" horiz-adv-x="2048" 
d="M1167 272q-55 -84 -127 -123.5t-170 -39.5q-158 0 -240.5 86t-82.5 254q0 239 139.5 401t343.5 162q80 0 139 -33t97 -98l53 98h178l-147 -598q-3 -11 -5 -22.5t-2 -18.5q0 -35 24 -52.5t71 -17.5q39 0 81.5 20t79.5 56q86 80 130.5 187t44.5 235q0 240 -185.5 394.5
t-478.5 154.5q-141 0 -262.5 -34t-220.5 -101q-170 -114 -261.5 -285t-91.5 -375q0 -307 207 -490.5t553 -183.5q162 0 316.5 49t287.5 142l82 -117q-153 -115 -324.5 -173t-357.5 -58q-192 0 -353 48.5t-286 143.5q-155 121 -232 279t-77 358q0 167 52.5 318.5t154.5 275.5
q148 181 356 274t463 93q169 0 317.5 -45.5t258.5 -128.5q135 -105 201.5 -239.5t66.5 -303.5q0 -165 -65.5 -304.5t-188.5 -238.5q-70 -56 -152.5 -85.5t-171.5 -29.5q-106 0 -159.5 42t-55.5 124zM1217 700q-13 81 -57.5 123.5t-117.5 42.5q-114 0 -198 -124t-84 -298
q0 -92 40.5 -140t117.5 -48q83 0 151.5 63t93.5 164z" />
    <glyph glyph-name="A" unicode="A" horiz-adv-x="1405" 
d="M700 1178l-204 -627h409zM524 1473h350l531 -1473h-318l-100 303h-571l-97 -303h-319z" />
    <glyph glyph-name="B" unicode="B" horiz-adv-x="1442" 
d="M442 266h359q127 0 185 46t58 145q0 103 -57 148.5t-188 45.5h-357v-385zM442 903h346q112 0 164 38.5t52 121.5q0 81 -50.5 117.5t-167.5 36.5h-344v-314zM152 0v1473h694q226 0 344.5 -95.5t118.5 -277.5q0 -112 -44 -187t-132 -116q114 -46 170.5 -132.5t56.5 -215.5
q0 -215 -140 -332t-397 -117h-671z" />
    <glyph glyph-name="C" unicode="C" horiz-adv-x="1524" 
d="M1434 506q-17 -251 -193.5 -399t-460.5 -148q-327 0 -508.5 204t-181.5 572q0 376 185 576t532 200q282 0 445.5 -137.5t179.5 -388.5h-299q-19 125 -102 190.5t-224 65.5q-200 0 -304 -129t-104 -377q0 -240 103.5 -371t294.5 -131q138 0 226 70.5t114 202.5h297z" />
    <glyph glyph-name="D" unicode="D" horiz-adv-x="1489" 
d="M449 266h243q211 0 305.5 110.5t94.5 358.5q0 247 -88 363t-275 116h-280v-948zM152 0v1473h577q339 0 505.5 -183t166.5 -555q0 -202 -61.5 -356t-178.5 -248q-88 -70 -200 -100.5t-314 -30.5h-495z" />
    <glyph glyph-name="E" unicode="E" horiz-adv-x="1337" 
d="M152 0v1473h1069v-256h-770v-314h704v-252h-704v-379h806v-272h-1105z" />
    <glyph glyph-name="F" unicode="F" horiz-adv-x="1225" 
d="M152 0v1473h1028v-256h-729v-334h639v-256h-639v-627h-299z" />
    <glyph glyph-name="G" unicode="G" horiz-adv-x="1591" 
d="M1212 174q-82 -111 -186.5 -163t-245.5 -52q-309 0 -500.5 214.5t-191.5 563.5q0 352 191 563t509 211q277 0 452 -132.5t208 -364.5h-309q-28 115 -114.5 175t-225.5 60q-185 0 -290.5 -135.5t-105.5 -374.5q0 -240 110 -376t302 -136q144 0 241 85t120 233h-334v252
h610v-797h-203z" />
    <glyph glyph-name="H" unicode="H" horiz-adv-x="1522" 
d="M152 0v1473h305v-549h608v549h305v-1473h-305v653h-608v-653h-305z" />
    <glyph glyph-name="I" unicode="I" horiz-adv-x="629" 
d="M162 0v1473h303v-1473h-303z" />
    <glyph glyph-name="J" unicode="J" horiz-adv-x="1133" 
d="M49 549h293v-178q0 -77 46 -117.5t132 -40.5q94 0 131 49t37 184v1027h303v-1041q0 -140 -16.5 -205.5t-54.5 -115.5q-58 -74 -159 -113t-237 -39q-125 0 -221 34t-160 101q-51 54 -72.5 120.5t-21.5 219.5v115z" />
    <glyph glyph-name="K" unicode="K" horiz-adv-x="1440" 
d="M152 0v1473h303v-605l575 605h379l-588 -596l641 -877h-370l-480 674l-157 -156v-518h-303z" />
    <glyph glyph-name="L" unicode="L" horiz-adv-x="1188" 
d="M152 0v1473h303v-1201h719v-272h-1022z" />
    <glyph glyph-name="M" unicode="M" horiz-adv-x="1786" 
d="M152 0v1473h448l293 -1121l289 1121h450v-1473h-284v1188l-299 -1188h-310l-303 1188v-1188h-284z" />
    <glyph glyph-name="N" unicode="N" horiz-adv-x="1518" 
d="M152 0v1473h317l598 -1012v1012h299v-1473h-313l-602 1012v-1012h-299z" />
    <glyph glyph-name="O" unicode="O" horiz-adv-x="1616" 
d="M397 735q0 -243 108 -377.5t302 -134.5q196 0 305 134.5t109 377.5t-109 377.5t-305 134.5q-194 0 -302 -134t-108 -378zM88 735q0 357 194.5 566.5t524.5 209.5t525.5 -210t195.5 -566t-195.5 -566t-525.5 -210t-524.5 210t-194.5 566z" />
    <glyph glyph-name="P" unicode="P" horiz-adv-x="1366" 
d="M457 791h293q119 0 173 50.5t54 162.5q0 105 -53 159t-158 54h-309v-426zM455 524v-524h-303v1473h655q232 0 351.5 -120.5t119.5 -353.5q0 -228 -117 -351.5t-334 -123.5h-372z" />
    <glyph glyph-name="Q" unicode="Q" horiz-adv-x="1616" 
d="M985 262l-156 152l166 172l160 -156q32 60 49 137t17 168q0 243 -109 377.5t-305 134.5q-194 0 -302 -134t-108 -378q0 -243 108 -377.5t302 -134.5q50 0 94.5 10t83.5 29zM1198 61q-75 -50 -174.5 -76t-216.5 -26q-330 0 -524.5 210t-194.5 566q0 357 194.5 566.5
t524.5 209.5t525.5 -210t195.5 -566q0 -156 -40 -285.5t-118 -226.5l160 -153l-164 -172z" />
    <glyph glyph-name="R" unicode="R" horiz-adv-x="1462" 
d="M455 829h356q116 0 170.5 47t54.5 148q0 96 -53 145.5t-158 49.5h-370v-390zM152 0v1473h714q241 0 357 -103t116 -315q0 -135 -56.5 -225t-162.5 -123q96 -34 136.5 -104t46.5 -218l6 -174v-6q3 -132 57 -160v-45h-332q-16 31 -24.5 76.5t-10.5 108.5l-4 155
q-5 137 -51.5 185t-167.5 48h-321v-573h-303z" />
    <glyph glyph-name="S" unicode="S" horiz-adv-x="1366" 
d="M84 455h299q17 -121 99 -179.5t237 -58.5q132 0 199 47t67 139q0 134 -385 222q-5 1 -9 2q-10 2 -31 7q-206 45 -294 101q-78 50 -119 134.5t-41 199.5q0 215 146 329.5t422 114.5q258 0 403.5 -122t153.5 -344h-291q-8 107 -82 163t-211 56q-119 0 -183.5 -46.5
t-64.5 -132.5q0 -117 251 -175q68 -16 106 -25q161 -41 228.5 -64t117.5 -51q90 -50 135 -132.5t45 -197.5q0 -230 -155 -356.5t-437 -126.5q-278 0 -436 129t-170 367z" />
    <glyph glyph-name="T" unicode="T" horiz-adv-x="1217" 
d="M457 0v1210h-437v263h1174v-263h-434v-1210h-303z" />
    <glyph glyph-name="U" unicode="U" horiz-adv-x="1468" 
d="M143 1477h306v-924q0 -171 68 -249.5t216 -78.5q150 0 218.5 78t68.5 250v924h303v-957q0 -271 -151.5 -416t-436.5 -145q-287 0 -439.5 144.5t-152.5 416.5v957z" />
    <glyph glyph-name="V" unicode="V" horiz-adv-x="1280" 
d="M498 0l-508 1473h336l313 -1102l319 1102h332l-502 -1473h-290z" />
    <glyph glyph-name="W" unicode="W" horiz-adv-x="1913" 
d="M438 0l-422 1473h314l252 -1039l213 1039h323l213 -1039l252 1039h311l-421 -1473h-289l-228 1128l-229 -1128h-289z" />
    <glyph glyph-name="X" unicode="X" horiz-adv-x="1282" 
d="M-10 0l463 752l-463 721h350l301 -515l299 515h352l-463 -719l463 -754h-350l-301 510l-301 -510h-350z" />
    <glyph glyph-name="Y" unicode="Y" horiz-adv-x="1274" 
d="M811 0h-303v549l-535 924h371l315 -635l291 635h346l-485 -924v-549z" />
    <glyph glyph-name="Z" unicode="Z" horiz-adv-x="1231" 
d="M37 0v256l801 950h-785v267h1153v-256l-803 -951h785v-266h-1151z" />
    <glyph glyph-name="bracketleft" unicode="[" horiz-adv-x="782" 
d="M238 1473h505v-213h-235v-1483h235v-213h-505v1909z" />
    <glyph glyph-name="backslash" unicode="\" horiz-adv-x="649" 
d="M504 -190l-496 1701h135l498 -1701h-137z" />
    <glyph glyph-name="bracketright" unicode="]" horiz-adv-x="782" 
d="M557 1473v-1909h-506v213h236v1483h-236v213h506z" />
    <glyph glyph-name="asciicircum" unicode="^" horiz-adv-x="2048" 
d="M897 1460h252l481 -561h-235l-371 371l-373 -371h-235z" />
    <glyph glyph-name="underscore" unicode="_" 
d="M0 -279h1024v-204h-1024v204z" />
    <glyph glyph-name="grave" unicode="`" 
d="M219 1587h258l197 -370h-142z" />
    <glyph glyph-name="a" unicode="a" horiz-adv-x="1151" 
d="M750 135q-55 -85 -144 -129.5t-207 -44.5q-158 0 -243.5 90t-85.5 256q0 154 85.5 235t282.5 111q45 7 118 16q185 24 185 107q0 66 -41 94.5t-137 28.5q-88 0 -135 -35t-47 -100v-16h-272v20q0 167 118 262.5t326 95.5q228 0 349.5 -79t121.5 -228v-618q0 -68 14 -101.5
t47 -50.5v-49h-303q-15 28 -23 62t-9 73zM745 535q-71 -33 -163.5 -53t-95.5 -21q-77 -22 -107.5 -55t-30.5 -91q0 -60 39 -95.5t105 -35.5q118 0 185.5 66.5t67.5 181.5v103z" />
    <glyph glyph-name="b" unicode="b" horiz-adv-x="1255" 
d="M133 1473h283v-521q54 85 135.5 128.5t185.5 43.5q197 0 322 -162.5t125 -422.5q0 -258 -125 -417t-326 -159q-105 0 -182.5 44t-140.5 140v-147h-277v1473zM895 551q0 150 -63 235.5t-173 85.5q-116 0 -179.5 -83.5t-63.5 -237.5q0 -166 60.5 -252t176.5 -86
q118 0 180 86.5t62 251.5z" />
    <glyph glyph-name="c" unicode="c" horiz-adv-x="1128" 
d="M784 410h287q-18 -207 -151 -327t-342 -120q-237 0 -371.5 154.5t-134.5 427.5q0 272 137.5 426.5t378.5 154.5q211 0 338.5 -112t142.5 -312h-289q-12 87 -61 133t-129 46q-108 0 -161.5 -85t-53.5 -255q0 -157 55.5 -241.5t159.5 -84.5q81 0 130 49t64 146z" />
    <glyph glyph-name="d" unicode="d" horiz-adv-x="1260" 
d="M1126 1473v-1473h-276v147q-63 -95 -141.5 -139.5t-184.5 -44.5q-201 0 -325.5 159t-124.5 417q0 260 124.5 422.5t321.5 162.5q105 0 187.5 -44t136.5 -128v521h282zM365 551q0 -165 62 -251.5t179 -86.5q116 0 177 86t61 252q0 154 -64 237.5t-180 83.5
q-109 0 -172 -85.5t-63 -235.5z" />
    <glyph glyph-name="e" unicode="e" horiz-adv-x="1167" 
d="M797 330h290q-44 -172 -177.5 -269.5t-325.5 -97.5q-236 0 -374 158.5t-138 429.5q0 267 136 421t372 154q250 0 386 -151.5t136 -431.5q0 -31 -0.5 -46.5t-2.5 -29.5h-726q6 -128 62.5 -193t162.5 -65q75 0 123 29.5t76 91.5zM373 658h428q-4 110 -58.5 167.5
t-156.5 57.5q-95 0 -149.5 -58t-63.5 -167z" />
    <glyph glyph-name="f" unicode="f" horiz-adv-x="664" 
d="M178 0v883h-155v204h155v101q0 152 78.5 223.5t247.5 71.5q31 0 65.5 -1.5t73.5 -5.5v-231h-76q-65 0 -85.5 -17t-20.5 -65v-76h182v-204h-180v-883h-285z" />
    <glyph glyph-name="g" unicode="g" horiz-adv-x="1249" 
d="M365 561q0 -153 61.5 -235t175.5 -82q115 0 175.5 82t60.5 239q0 149 -62.5 230.5t-177.5 81.5q-111 0 -172 -83t-61 -233zM102 -105l318 1q14 -55 57.5 -82t116.5 -27q136 0 190 57.5t54 212.5v97q-46 -79 -119.5 -116.5t-183.5 -37.5q-211 0 -338 150.5t-127 400.5
q0 264 124.5 419.5t335.5 155.5q110 0 187.5 -42t126.5 -128v131h276v-1015q0 -171 -32 -261t-109 -151q-66 -51 -167.5 -77.5t-231.5 -26.5q-218 0 -343 89t-135 250z" />
    <glyph glyph-name="h" unicode="h" horiz-adv-x="1233" 
d="M133 0v1473h289v-506q59 74 140.5 111.5t182.5 37.5q96 0 173.5 -33t125.5 -94q33 -41 46.5 -94t13.5 -170v-20v-705h-289v569q0 202 -37 253.5t-133 51.5q-103 0 -163 -61.5t-60 -167.5v-645h-289z" />
    <glyph glyph-name="i" unicode="i" horiz-adv-x="557" 
d="M133 1208v265h291v-265h-291zM133 0v1087h291v-1087h-291z" />
    <glyph glyph-name="j" unicode="j" horiz-adv-x="555" 
d="M133 1208v262h291v-262h-291zM6 -444v243h57q37 0 53.5 17.5t16.5 56.5v1214h291v-1261q0 -146 -82 -208t-281 -62h-55z" />
    <glyph glyph-name="k" unicode="k" horiz-adv-x="1135" 
d="M133 0v1473h283v-773l346 387h350l-379 -403l402 -684h-349l-260 463l-110 -119v-344h-283z" />
    <glyph glyph-name="l" unicode="l" horiz-adv-x="563" 
d="M137 0v1473h291v-1473h-291z" />
    <glyph glyph-name="m" unicode="m" horiz-adv-x="1796" 
d="M127 0v1087h276v-120q61 75 136 113t166 38q103 0 176 -38.5t127 -121.5q57 80 135 120t174 40q164 0 260 -96t96 -262v-760h-287v700q0 79 -42.5 122.5t-118.5 43.5q-85 0 -135 -55.5t-50 -151.5v-659h-284v698q0 80 -41.5 124t-116.5 44q-85 0 -134.5 -56t-49.5 -153
v-657h-287z" />
    <glyph glyph-name="n" unicode="n" horiz-adv-x="1223" 
d="M127 0v1087h285v-129q61 79 144 118.5t185 39.5q180 0 269.5 -93.5t89.5 -281.5v-741h-291v657q0 117 -39.5 167t-128.5 50q-103 0 -163 -61.5t-60 -167.5v-645h-291z" />
    <glyph glyph-name="o" unicode="o" horiz-adv-x="1245" 
d="M367 545q0 -162 66.5 -250t189.5 -88q121 0 187.5 88t66.5 250q0 161 -66 248.5t-188 87.5q-123 0 -189.5 -87.5t-66.5 -248.5zM72 545q0 271 147 426t404 155q256 0 403.5 -155t147.5 -426q0 -272 -147.5 -427t-403.5 -155q-257 0 -404 155t-147 427z" />
    <glyph glyph-name="p" unicode="p" horiz-adv-x="1255" 
d="M895 537q0 164 -62 250.5t-180 86.5q-116 0 -176.5 -86t-60.5 -251q0 -154 63.5 -238t179.5 -84q110 0 173 86t63 236zM133 -436v1523h277v-147q63 96 140.5 140t182.5 44q201 0 326 -158.5t125 -416.5q0 -261 -125 -423.5t-322 -162.5q-104 0 -185.5 44t-135.5 128v-571
h-283z" />
    <glyph glyph-name="q" unicode="q" horiz-adv-x="1255" 
d="M360 551q0 -165 62 -251.5t180 -86.5q116 0 177 86t61 252q0 154 -64 237.5t-180 83.5q-109 0 -172.5 -85.5t-63.5 -235.5zM1124 1087v-1523h-284v577q-61 -91 -138.5 -134.5t-179.5 -43.5q-201 0 -325.5 159t-124.5 417q0 260 124.5 422.5t321.5 162.5
q106 0 188.5 -44.5t137.5 -131.5v139h280z" />
    <glyph glyph-name="r" unicode="r" horiz-adv-x="786" 
d="M127 0v1087h270v-186q57 112 133 164.5t181 52.5q17 0 26.5 -0.5t15.5 -1.5l1 -295h-97q-119 0 -179 -62t-60 -184v-575h-291z" />
    <glyph glyph-name="s" unicode="s" horiz-adv-x="1118" 
d="M66 354h290q4 -83 60 -123.5t168 -40.5q85 0 131.5 28.5t46.5 80.5q0 74 -174 111q-71 15 -113 26q-212 54 -294.5 128t-82.5 200q0 167 120.5 264.5t326.5 97.5q218 0 342.5 -97t132.5 -273h-283q-3 69 -52.5 107t-137.5 38q-83 0 -123.5 -25t-40.5 -75q0 -65 217 -115
q50 -11 79 -18q217 -51 296.5 -123t79.5 -203q0 -185 -130.5 -282t-379.5 -97q-225 0 -352 101t-127 278v12z" />
    <glyph glyph-name="t" unicode="t" horiz-adv-x="651" 
d="M610 -8q-40 -1 -95.5 -3.5t-70.5 -2.5q-167 0 -228.5 62.5t-61.5 246.5v588h-144v204h144v297h288v-297h168v-204h-168v-602q0 -43 19 -56.5t78 -13.5h71v-219z" />
    <glyph glyph-name="u" unicode="u" horiz-adv-x="1223" 
d="M1096 1087v-1087h-285v129q-62 -79 -144.5 -118.5t-185.5 -39.5q-179 0 -268.5 94t-89.5 281v741h291v-657q0 -116 39 -165.5t129 -49.5q102 0 162.5 61.5t60.5 167.5v643h291z" />
    <glyph glyph-name="v" unicode="v" horiz-adv-x="1085" 
d="M395 0l-391 1087h322l223 -780l225 780h307l-389 -1087h-297z" />
    <glyph glyph-name="w" unicode="w" horiz-adv-x="1567" 
d="M322 0l-308 1087h295l178 -753l150 753h297l158 -753l178 753h282l-305 -1087h-291l-174 778l-168 -778h-292z" />
    <glyph glyph-name="x" unicode="x" horiz-adv-x="1057" 
d="M-8 0l366 555l-350 532h332l192 -327l191 327h321l-342 -528l363 -559h-340l-201 344l-198 -344h-334z" />
    <glyph glyph-name="y" unicode="y" horiz-adv-x="1100" 
d="M170 -436v235q14 -2 29 -3t39 -1q86 0 129 40.5t43 121.5q0 6 -2 15t-4 15l-392 1100h320l229 -784l223 784h306l-447 -1282q-50 -144 -125 -196.5t-225 -52.5q-27 0 -58 2t-65 6z" />
    <glyph glyph-name="z" unicode="z" horiz-adv-x="1036" 
d="M35 0v223l596 633h-561v231h909v-237l-588 -608h608v-242h-964z" />
    <glyph glyph-name="braceleft" unicode="{" 
d="M883 1477v-209q-9 0 -25 1t-22 1q-101 0 -136.5 -38.5t-35.5 -162.5v-240q0 -148 -45 -210t-162 -89q117 -27 162 -88t45 -209v-241q0 -123 35 -161t137 -38q6 0 22 1t25 1v-209q-14 0 -39 -1t-37 -1q-100 0 -167 12t-114 37q-57 34 -80.5 91.5t-23.5 199.5v252
q0 137 -51 194.5t-172 57.5q-6 0 -20 -1t-21 -1v209q7 0 21 -1t20 -1q120 0 171.5 58t51.5 196v250q0 143 23.5 201t80.5 92q47 25 114 37t167 12q12 0 37 -1t39 -1z" />
    <glyph glyph-name="bar" unicode="|" 
d="M410 1565h206v-2048h-206v2048z" />
    <glyph glyph-name="braceright" unicode="}" 
d="M143 1477h68q110 0 177 -12t112 -38q57 -32 80.5 -91.5t23.5 -198.5v-252q0 -137 51 -194.5t172 -57.5q6 0 20 1t21 1v-209h-37q-125 0 -176 -56t-51 -194v-252q0 -143 -23.5 -201t-80.5 -90q-47 -25 -114 -37t-167 -12q-12 0 -37 1t-39 1v209q9 0 25 -1t22 -1
q101 0 136.5 38.5t35.5 160.5v239q0 150 45 211.5t162 87.5q-117 27 -162 89t-45 210v242q0 122 -35.5 160.5t-136.5 38.5q-6 0 -22 -1t-25 -1v209z" />
    <glyph glyph-name="asciitilde" unicode="~" horiz-adv-x="1706" 
d="M1530 803v-221q-104 -71 -196.5 -104.5t-182.5 -33.5q-46 0 -92 8t-92 23q-24 8 -71 25q-219 75 -333 75q-85 0 -177.5 -37.5t-207.5 -119.5v221q107 72 204 107.5t183 35.5q117 0 291 -58q3 -1 4 -1q18 -6 55 -19q155 -55 240 -55t175 37t200 117z" />
    <glyph glyph-name="Adieresis" unicode="&#xc4;" horiz-adv-x="1405" 
d="M700 1178l-204 -627h409zM524 1473h350l531 -1473h-318l-100 303h-571l-97 -303h-319zM763 1661v246h226v-246h-226zM415 1661v246h226v-246h-226z" />
    <glyph glyph-name="Aring" unicode="&#xc5;" horiz-adv-x="1405" 
d="M700 1835q-48 0 -82 -35.5t-34 -85.5q0 -49 33.5 -83t82.5 -34q50 0 85.5 34.5t35.5 82.5q0 49 -35.5 85t-85.5 36zM700 1972q108 0 183 -74.5t75 -181.5t-75 -181.5t-183 -74.5q-107 0 -180.5 74t-73.5 182t73.5 182t180.5 74zM508 1413h385l512 -1413h-318l-100 303
h-571l-97 -303h-319zM700 1178l-204 -627h409z" />
    <glyph glyph-name="Ccedilla" unicode="&#xc7;" horiz-adv-x="1524" 
d="M1434 506q-17 -251 -193.5 -399t-460.5 -148q-327 0 -508.5 204t-181.5 572q0 376 185 576t532 200q282 0 445.5 -137.5t179.5 -388.5h-299q-19 125 -102 190.5t-224 65.5q-200 0 -304 -129t-104 -377q0 -240 103.5 -371t294.5 -131q138 0 226 70.5t114 202.5h297z
M559 -438v129q80 -21 145 -32t111 -11q52 0 76 17.5t24 55.5t-28 54t-93 16q-23 0 -35 -0.5t-22 -1.5v211h102v-90h15q117 0 176 -48t59 -143q0 -100 -66 -150t-198 -50q-51 0 -119.5 11t-146.5 32z" />
    <glyph glyph-name="Eacute" unicode="&#xc9;" horiz-adv-x="1337" 
d="M152 0v1473h1069v-256h-770v-314h704v-252h-704v-379h806v-272h-1105zM981 1972l-313 -370h-142l197 370h258z" />
    <glyph glyph-name="Ntilde" unicode="&#xd1;" horiz-adv-x="1518" 
d="M152 0v1473h317l598 -1012v1012h299v-1473h-313l-602 1012v-1012h-299zM1085 1923q-26 -125 -77 -184.5t-131 -59.5q-21 0 -39 2.5t-36 8.5l-87 26q-19 5 -35 7.5t-31 2.5q-34 0 -55 -18t-33 -59h-110q24 121 74 178t130 57q21 0 42 -3.5t44 -10.5l93 -25q12 -4 25.5 -6
t29.5 -2q32 0 53.5 21.5t32.5 64.5h110z" />
    <glyph glyph-name="Odieresis" unicode="&#xd6;" horiz-adv-x="1616" 
d="M397 735q0 -243 108 -377.5t302 -134.5q196 0 305 134.5t109 377.5t-109 377.5t-305 134.5q-194 0 -302 -134t-108 -378zM88 735q0 357 194.5 566.5t524.5 209.5t525.5 -210t195.5 -566t-195.5 -566t-525.5 -210t-524.5 210t-194.5 566zM870 1661v246h226v-246h-226z
M522 1661v246h226v-246h-226z" />
    <glyph glyph-name="Udieresis" unicode="&#xdc;" horiz-adv-x="1468" 
d="M143 1477h306v-924q0 -171 68 -249.5t216 -78.5q150 0 218.5 78t68.5 250v924h303v-957q0 -271 -151.5 -416t-436.5 -145q-287 0 -439.5 144.5t-152.5 416.5v957zM796 1661v246h226v-246h-226zM448 1661v246h226v-246h-226z" />
    <glyph glyph-name="aacute" unicode="&#xe1;" horiz-adv-x="1151" 
d="M750 135q-55 -85 -144 -129.5t-207 -44.5q-158 0 -243.5 90t-85.5 256q0 154 85.5 235t282.5 111q45 7 118 16q185 24 185 107q0 66 -41 94.5t-137 28.5q-88 0 -135 -35t-47 -100v-16h-272v20q0 167 118 262.5t326 95.5q228 0 349.5 -79t121.5 -228v-618q0 -68 14 -101.5
t47 -50.5v-49h-303q-15 28 -23 62t-9 73zM745 535q-71 -33 -163.5 -53t-95.5 -21q-77 -22 -107.5 -55t-30.5 -91q0 -60 39 -95.5t105 -35.5q118 0 185.5 66.5t67.5 181.5v103zM854 1587l-313 -370h-142l197 370h258z" />
    <glyph glyph-name="agrave" unicode="&#xe0;" horiz-adv-x="1151" 
d="M750 135q-55 -85 -144 -129.5t-207 -44.5q-158 0 -243.5 90t-85.5 256q0 154 85.5 235t282.5 111q45 7 118 16q185 24 185 107q0 66 -41 94.5t-137 28.5q-88 0 -135 -35t-47 -100v-16h-272v20q0 167 118 262.5t326 95.5q228 0 349.5 -79t121.5 -228v-618q0 -68 14 -101.5
t47 -50.5v-49h-303q-15 28 -23 62t-9 73zM745 535q-71 -33 -163.5 -53t-95.5 -21q-77 -22 -107.5 -55t-30.5 -91q0 -60 39 -95.5t105 -35.5q118 0 185.5 66.5t67.5 181.5v103zM268 1587h258l197 -370h-142z" />
    <glyph glyph-name="acircumflex" unicode="&#xe2;" horiz-adv-x="1151" 
d="M750 135q-55 -85 -144 -129.5t-207 -44.5q-158 0 -243.5 90t-85.5 256q0 154 85.5 235t282.5 111q45 7 118 16q185 24 185 107q0 66 -41 94.5t-137 28.5q-88 0 -135 -35t-47 -100v-16h-272v20q0 167 118 262.5t326 95.5q228 0 349.5 -79t121.5 -228v-618q0 -68 14 -101.5
t47 -50.5v-49h-303q-15 28 -23 62t-9 73zM745 535q-71 -33 -163.5 -53t-95.5 -21q-77 -22 -107.5 -55t-30.5 -91q0 -60 39 -95.5t105 -35.5q118 0 185.5 66.5t67.5 181.5v103zM246 1217l196 370h238l196 -370h-141l-174 217l-176 -217h-139z" />
    <glyph glyph-name="adieresis" unicode="&#xe4;" horiz-adv-x="1151" 
d="M750 135q-55 -85 -144 -129.5t-207 -44.5q-158 0 -243.5 90t-85.5 256q0 154 85.5 235t282.5 111q45 7 118 16q185 24 185 107q0 66 -41 94.5t-137 28.5q-88 0 -135 -35t-47 -100v-16h-272v20q0 167 118 262.5t326 95.5q228 0 349.5 -79t121.5 -228v-618q0 -68 14 -101.5
t47 -50.5v-49h-303q-15 28 -23 62t-9 73zM745 535q-71 -33 -163.5 -53t-95.5 -21q-77 -22 -107.5 -55t-30.5 -91q0 -60 39 -95.5t105 -35.5q118 0 185.5 66.5t67.5 181.5v103zM622 1276v246h226v-246h-226zM274 1276v246h226v-246h-226z" />
    <glyph glyph-name="atilde" unicode="&#xe3;" horiz-adv-x="1151" 
d="M750 135q-55 -85 -144 -129.5t-207 -44.5q-158 0 -243.5 90t-85.5 256q0 154 85.5 235t282.5 111q45 7 118 16q185 24 185 107q0 66 -41 94.5t-137 28.5q-88 0 -135 -35t-47 -100v-16h-272v20q0 167 118 262.5t326 95.5q228 0 349.5 -79t121.5 -228v-618q0 -68 14 -101.5
t47 -50.5v-49h-303q-15 28 -23 62t-9 73zM745 535q-71 -33 -163.5 -53t-95.5 -21q-77 -22 -107.5 -55t-30.5 -91q0 -60 39 -95.5t105 -35.5q118 0 185.5 66.5t67.5 181.5v103zM878 1538q-26 -125 -77 -184.5t-131 -59.5q-21 0 -39 2.5t-36 8.5l-87 26q-19 5 -35 7.5t-31 2.5
q-34 0 -55 -18t-33 -59h-110q24 121 74 178t130 57q21 0 42 -3.5t44 -10.5l93 -25q12 -4 25.5 -6t29.5 -2q32 0 53.5 21.5t32.5 64.5h110z" />
    <glyph glyph-name="aring" unicode="&#xe5;" horiz-adv-x="1151" 
d="M745 535q-71 -33 -163.5 -53t-95.5 -21q-77 -22 -107.5 -55t-30.5 -91q0 -60 39 -95.5t105 -35.5q118 0 185.5 66.5t67.5 181.5v103zM449 1427q0 -48 34.5 -82t83.5 -34q50 0 84.5 34t34.5 82q0 50 -35 85.5t-84 35.5t-83.5 -35.5t-34.5 -85.5zM311 1430
q0 107 74.5 181.5t181.5 74.5q108 0 182 -74.5t74 -181.5q0 -108 -74 -182t-182 -74q-107 0 -181.5 74t-74.5 182zM750 135q-55 -85 -144 -129.5t-207 -44.5q-158 0 -243.5 90t-85.5 256q0 154 85.5 235t282.5 111q45 7 118 16q185 24 185 107q0 66 -41 94.5t-137 28.5
q-88 0 -135 -35t-47 -100v-16h-272v20q0 167 118 262.5t326 95.5q228 0 349.5 -79t121.5 -228v-618q0 -68 14 -101.5t47 -50.5v-49h-303q-15 28 -23 62t-9 73z" />
    <glyph glyph-name="ccedilla" unicode="&#xe7;" horiz-adv-x="1128" 
d="M784 410h287q-18 -207 -151 -327t-342 -120q-237 0 -371.5 154.5t-134.5 427.5q0 272 137.5 426.5t378.5 154.5q211 0 338.5 -112t142.5 -312h-289q-12 87 -61 133t-129 46q-108 0 -161.5 -85t-53.5 -255q0 -157 55.5 -241.5t159.5 -84.5q81 0 130 49t64 146zM359 -438
v129q80 -21 145 -32t111 -11q52 0 76 17.5t24 55.5t-28 54t-93 16q-23 0 -35 -0.5t-22 -1.5v211h102v-90h15q117 0 176 -48t59 -143q0 -100 -66 -150t-198 -50q-51 0 -119.5 11t-146.5 32z" />
    <glyph glyph-name="eacute" unicode="&#xe9;" horiz-adv-x="1167" 
d="M797 330h290q-44 -172 -177.5 -269.5t-325.5 -97.5q-236 0 -374 158.5t-138 429.5q0 267 136 421t372 154q250 0 386 -151.5t136 -431.5q0 -31 -0.5 -46.5t-2.5 -29.5h-726q6 -128 62.5 -193t162.5 -65q75 0 123 29.5t76 91.5zM373 658h428q-4 110 -58.5 167.5
t-156.5 57.5q-95 0 -149.5 -58t-63.5 -167zM877 1587l-313 -370h-142l197 370h258z" />
    <glyph glyph-name="egrave" unicode="&#xe8;" horiz-adv-x="1167" 
d="M797 330h290q-44 -172 -177.5 -269.5t-325.5 -97.5q-236 0 -374 158.5t-138 429.5q0 267 136 421t372 154q250 0 386 -151.5t136 -431.5q0 -31 -0.5 -46.5t-2.5 -29.5h-726q6 -128 62.5 -193t162.5 -65q75 0 123 29.5t76 91.5zM373 658h428q-4 110 -58.5 167.5
t-156.5 57.5q-95 0 -149.5 -58t-63.5 -167zM291 1587h258l197 -370h-142z" />
    <glyph glyph-name="ecircumflex" unicode="&#xea;" horiz-adv-x="1167" 
d="M797 330h290q-44 -172 -177.5 -269.5t-325.5 -97.5q-236 0 -374 158.5t-138 429.5q0 267 136 421t372 154q250 0 386 -151.5t136 -431.5q0 -31 -0.5 -46.5t-2.5 -29.5h-726q6 -128 62.5 -193t162.5 -65q75 0 123 29.5t76 91.5zM373 658h428q-4 110 -58.5 167.5
t-156.5 57.5q-95 0 -149.5 -58t-63.5 -167zM269 1217l196 370h238l196 -370h-141l-174 217l-176 -217h-139z" />
    <glyph glyph-name="edieresis" unicode="&#xeb;" horiz-adv-x="1167" 
d="M797 330h290q-44 -172 -177.5 -269.5t-325.5 -97.5q-236 0 -374 158.5t-138 429.5q0 267 136 421t372 154q250 0 386 -151.5t136 -431.5q0 -31 -0.5 -46.5t-2.5 -29.5h-726q6 -128 62.5 -193t162.5 -65q75 0 123 29.5t76 91.5zM373 658h428q-4 110 -58.5 167.5
t-156.5 57.5q-95 0 -149.5 -58t-63.5 -167zM645 1276v246h226v-246h-226zM297 1276v246h226v-246h-226z" />
    <glyph glyph-name="iacute" unicode="&#xed;" horiz-adv-x="557" 
d="M133 0v1087h291v-1087h-291zM572 1587l-313 -370h-142l197 370h258z" />
    <glyph glyph-name="igrave" unicode="&#xec;" horiz-adv-x="557" 
d="M133 0v1087h291v-1087h-291zM-14 1587h258l197 -370h-142z" />
    <glyph glyph-name="icircumflex" unicode="&#xee;" horiz-adv-x="557" 
d="M133 0v1087h291v-1087h-291zM-36 1217l196 370h238l196 -370h-141l-174 217l-176 -217h-139z" />
    <glyph glyph-name="idieresis" unicode="&#xef;" horiz-adv-x="557" 
d="M133 0v1087h291v-1087h-291zM340 1276v246h226v-246h-226zM-8 1276v246h226v-246h-226z" />
    <glyph glyph-name="ntilde" unicode="&#xf1;" horiz-adv-x="1223" 
d="M127 0v1087h285v-129q61 79 144 118.5t185 39.5q180 0 269.5 -93.5t89.5 -281.5v-741h-291v657q0 117 -39.5 167t-128.5 50q-103 0 -163 -61.5t-60 -167.5v-645h-291zM944 1538q-26 -125 -77 -184.5t-131 -59.5q-21 0 -39 2.5t-36 8.5l-87 26q-19 5 -35 7.5t-31 2.5
q-34 0 -55 -18t-33 -59h-110q24 121 74 178t130 57q21 0 42 -3.5t44 -10.5l93 -25q12 -4 25.5 -6t29.5 -2q32 0 53.5 21.5t32.5 64.5h110z" />
    <glyph glyph-name="oacute" unicode="&#xf3;" horiz-adv-x="1245" 
d="M367 545q0 -162 66.5 -250t189.5 -88q121 0 187.5 88t66.5 250q0 161 -66 248.5t-188 87.5q-123 0 -189.5 -87.5t-66.5 -248.5zM72 545q0 271 147 426t404 155q256 0 403.5 -155t147.5 -426q0 -272 -147.5 -427t-403.5 -155q-257 0 -404 155t-147 427zM916 1587
l-313 -370h-142l197 370h258z" />
    <glyph glyph-name="ograve" unicode="&#xf2;" horiz-adv-x="1245" 
d="M367 545q0 -162 66.5 -250t189.5 -88q121 0 187.5 88t66.5 250q0 161 -66 248.5t-188 87.5q-123 0 -189.5 -87.5t-66.5 -248.5zM72 545q0 271 147 426t404 155q256 0 403.5 -155t147.5 -426q0 -272 -147.5 -427t-403.5 -155q-257 0 -404 155t-147 427zM330 1587h258
l197 -370h-142z" />
    <glyph glyph-name="ocircumflex" unicode="&#xf4;" horiz-adv-x="1245" 
d="M367 545q0 -162 66.5 -250t189.5 -88q121 0 187.5 88t66.5 250q0 161 -66 248.5t-188 87.5q-123 0 -189.5 -87.5t-66.5 -248.5zM72 545q0 271 147 426t404 155q256 0 403.5 -155t147.5 -426q0 -272 -147.5 -427t-403.5 -155q-257 0 -404 155t-147 427zM308 1217l196 370
h238l196 -370h-141l-174 217l-176 -217h-139z" />
    <glyph glyph-name="odieresis" unicode="&#xf6;" horiz-adv-x="1245" 
d="M367 545q0 -162 66.5 -250t189.5 -88q121 0 187.5 88t66.5 250q0 161 -66 248.5t-188 87.5q-123 0 -189.5 -87.5t-66.5 -248.5zM72 545q0 271 147 426t404 155q256 0 403.5 -155t147.5 -426q0 -272 -147.5 -427t-403.5 -155q-257 0 -404 155t-147 427zM684 1276v246h226
v-246h-226zM336 1276v246h226v-246h-226z" />
    <glyph glyph-name="otilde" unicode="&#xf5;" horiz-adv-x="1245" 
d="M367 545q0 -162 66.5 -250t189.5 -88q121 0 187.5 88t66.5 250q0 161 -66 248.5t-188 87.5q-123 0 -189.5 -87.5t-66.5 -248.5zM72 545q0 271 147 426t404 155q256 0 403.5 -155t147.5 -426q0 -272 -147.5 -427t-403.5 -155q-257 0 -404 155t-147 427zM940 1538
q-26 -125 -77 -184.5t-131 -59.5q-21 0 -39 2.5t-36 8.5l-87 26q-19 5 -35 7.5t-31 2.5q-34 0 -55 -18t-33 -59h-110q24 121 74 178t130 57q21 0 42 -3.5t44 -10.5l93 -25q12 -4 25.5 -6t29.5 -2q32 0 53.5 21.5t32.5 64.5h110z" />
    <glyph glyph-name="uacute" unicode="&#xfa;" horiz-adv-x="1223" 
d="M1096 1087v-1087h-285v129q-62 -79 -144.5 -118.5t-185.5 -39.5q-179 0 -268.5 94t-89.5 281v741h291v-657q0 -116 39 -165.5t129 -49.5q102 0 162.5 61.5t60.5 167.5v643h291zM905 1587l-313 -370h-142l197 370h258z" />
    <glyph glyph-name="ugrave" unicode="&#xf9;" horiz-adv-x="1223" 
d="M1096 1087v-1087h-285v129q-62 -79 -144.5 -118.5t-185.5 -39.5q-179 0 -268.5 94t-89.5 281v741h291v-657q0 -116 39 -165.5t129 -49.5q102 0 162.5 61.5t60.5 167.5v643h291zM319 1587h258l197 -370h-142z" />
    <glyph glyph-name="ucircumflex" unicode="&#xfb;" horiz-adv-x="1223" 
d="M1096 1087v-1087h-285v129q-62 -79 -144.5 -118.5t-185.5 -39.5q-179 0 -268.5 94t-89.5 281v741h291v-657q0 -116 39 -165.5t129 -49.5q102 0 162.5 61.5t60.5 167.5v643h291zM297 1217l196 370h238l196 -370h-141l-174 217l-176 -217h-139z" />
    <glyph glyph-name="udieresis" unicode="&#xfc;" horiz-adv-x="1223" 
d="M1096 1087v-1087h-285v129q-62 -79 -144.5 -118.5t-185.5 -39.5q-179 0 -268.5 94t-89.5 281v741h291v-657q0 -116 39 -165.5t129 -49.5q102 0 162.5 61.5t60.5 167.5v643h291zM673 1276v246h226v-246h-226zM325 1276v246h226v-246h-226z" />
    <glyph glyph-name="dagger" unicode="&#x2020;" 
d="M393 -217v1069h-334v188h334v433h238v-433h334v-188h-334v-1069h-238z" />
    <glyph glyph-name="degree" unicode="&#xb0;" horiz-adv-x="674" 
d="M338 1335q-73 0 -124.5 -51t-51.5 -123q0 -74 51 -125t125 -51q72 0 123 52t51 124t-51 123t-123 51zM338 1464q126 0 214.5 -89.5t88.5 -215.5q0 -125 -89 -214t-216 -89q-126 0 -213.5 88t-87.5 215t88.5 216t214.5 89z" />
    <glyph glyph-name="cent" unicode="&#xa2;" horiz-adv-x="1161" 
d="M620 885q-19 2 -29.5 3t-19.5 1q-107 0 -162 -88t-55 -260q0 -99 22.5 -171t65.5 -116zM297 -246l68 244q-150 63 -227 201t-77 344q0 273 137.5 428t376.5 155q27 0 53 -2t52 -6l45 166h109l-54 -190q126 -39 197 -138.5t82 -253.5l-281 1q-5 49 -22.5 84.5t-50.5 62.5
l-179 -639q2 0 6 -1q30 -3 46 -3q88 0 137.5 49t66.5 154h281q-15 -207 -146.5 -328t-338.5 -121q-27 0 -55 2t-58 6l-59 -215h-109z" />
    <glyph glyph-name="sterling" unicode="&#xa3;" horiz-adv-x="1161" 
d="M70 166q120 83 170.5 153t50.5 150q0 38 -12 80.5t-35 89.5h-176v111h108q-44 87 -64 155t-20 127q0 178 130.5 288t344.5 110q232 0 364 -119t144 -338h-276q-8 113 -65 173t-156 60q-94 0 -144.5 -49t-50.5 -141q0 -53 63 -192q22 -48 33 -74h285v-111h-244
q9 -38 13 -70t4 -59q0 -72 -44.5 -143.5t-150.5 -167.5q65 30 117.5 44.5t95.5 14.5q52 0 142 -23.5t128 -23.5q50 0 98.5 16t96.5 49l88 -217q-83 -49 -159 -74.5t-142 -25.5q-76 0 -205.5 40t-187.5 40q-61 0 -118.5 -20t-111.5 -60z" />
    <glyph glyph-name="section" unicode="&#xa7;" 
d="M659 487q40 23 60 51t20 60q0 39 -23 66.5t-95 64.5l-265 137q-39 -23 -59.5 -52t-20.5 -62q0 -39 29.5 -68.5t130.5 -81.5zM115 160h247q8 -78 46.5 -116t109.5 -38q66 0 105 31.5t39 85.5q0 44 -29 76.5t-115 74.5l-239 121q-114 57 -170 131t-56 166q0 89 43.5 156.5
t128.5 112.5q-50 45 -74 98.5t-24 118.5q0 150 103 241.5t274 91.5q176 0 276 -90t103 -249h-236q-2 67 -39.5 102t-107.5 35q-62 0 -95.5 -27t-33.5 -76q0 -40 39.5 -74.5t142.5 -82.5l168 -78q128 -61 189 -135.5t61 -171.5q0 -91 -45.5 -158.5t-130.5 -104.5
q58 -51 87 -113t29 -136q0 -154 -110 -254.5t-283 -100.5q-190 0 -292 92t-111 271z" />
    <glyph glyph-name="bullet" unicode="&#x2022;" horiz-adv-x="1208" 
d="M307 762q0 123 87 209t210 86q122 0 208.5 -86.5t86.5 -208.5t-87.5 -209.5t-209.5 -87.5q-123 0 -209 87t-86 210z" />
    <glyph glyph-name="paragraph" unicode="&#xb6;" 
d="M983 1479v-111h-113v-1368h-151v1368h-158v-1368h-153v784q-167 6 -267 101t-100 245q0 158 107 253.5t284 95.5h551z" />
    <glyph glyph-name="germandbls" unicode="&#xdf;" horiz-adv-x="1229" 
d="M127 0v1112q0 166 129 268.5t344 102.5q219 0 343 -100t124 -275q0 -108 -36.5 -177t-112.5 -106q118 -47 177.5 -138t59.5 -224q0 -224 -129 -362t-338 -138q-29 0 -64.5 3t-76.5 9v234q13 -2 26.5 -3t40.5 -1q118 0 182 65.5t64 186.5q0 117 -69.5 178t-202.5 61h-27
l1 205q6 -1 13 -1.5t21 -0.5q89 0 135.5 44.5t46.5 129.5t-48.5 129.5t-141.5 44.5q-86 0 -131 -49.5t-45 -144.5v-1053h-285z" />
    <glyph glyph-name="registered" unicode="&#xae;" horiz-adv-x="1706" 
d="M745 1034v-239h99q88 0 129 28t41 88q0 63 -44 93t-136 30h-89zM545 1161h323q176 0 264.5 -59.5t88.5 -177.5q0 -82 -48 -140t-133 -79l185 -369h-224l-157 338h-99v-338h-200v825zM854 1356q-127 0 -236 -44.5t-196 -131.5q-91 -91 -140 -206.5t-49 -238.5
q0 -124 46 -235.5t133 -198.5q89 -91 203 -139.5t237 -48.5q120 0 233.5 47t206.5 135q87 84 135 196t48 232q0 133 -44.5 245t-132.5 201q-90 93 -202.5 140t-241.5 47zM852 1479q154 0 290.5 -57.5t243.5 -166.5q103 -104 157 -238t54 -284q0 -152 -56 -287.5t-163 -238.5
q-107 -105 -243.5 -161t-282.5 -56q-149 0 -285 58t-243 167q-104 105 -158.5 238.5t-54.5 279.5q0 102 27 198.5t81 188.5q101 170 267 264.5t366 94.5z" />
    <glyph glyph-name="copyright" unicode="&#xa9;" horiz-adv-x="1706" 
d="M1212 897h-188q-8 70 -53 108.5t-119 38.5q-91 0 -143 -81.5t-52 -227.5q0 -147 52 -224t151 -77q73 0 117 42t53 119l193 1q-8 -139 -109 -223t-260 -84q-186 0 -293.5 118t-107.5 322q0 206 109.5 328.5t293.5 122.5q152 0 250.5 -78t105.5 -205zM854 1356
q-128 0 -239.5 -46t-198.5 -134q-89 -90 -136 -203.5t-47 -237.5q0 -125 47 -237t136 -201q88 -88 201 -135t237 -47t237.5 47t204.5 137q88 86 133.5 197t45.5 239q0 126 -46.5 238.5t-134.5 200.5q-89 89 -201 135.5t-239 46.5zM852 1479q152 0 287.5 -56t242.5 -163
q105 -105 160 -240.5t55 -286.5q0 -152 -54.5 -284t-160.5 -236q-111 -108 -248 -165.5t-282 -57.5q-147 0 -280.5 56.5t-241.5 164.5q-107 106 -163 240.5t-56 281.5q0 149 56 284.5t163 244.5q105 106 238 161.5t284 55.5z" />
    <glyph glyph-name="trademark" unicode="&#x2122;" horiz-adv-x="1706" 
d="M803 1462h196l127 -332l123 332h197v-547h-135v410l-154 -410h-61l-158 410v-410h-135v547zM207 1462h485v-112h-168v-435h-149v435h-168v112z" />
    <glyph glyph-name="acute" unicode="&#xb4;" 
d="M805 1587l-313 -370h-142l197 370h258z" />
    <glyph glyph-name="dieresis" unicode="&#xa8;" 
d="M573 1276v246h226v-246h-226zM225 1276v246h226v-246h-226z" />
    <glyph glyph-name="notequal" unicode="&#x2260;" horiz-adv-x="1706" 
d="M1198 1233l148 -119l-154 -192h260v-191h-389l-191 -239h580v-193h-707l-245 -309l-148 119l154 190h-252v193h377l190 239h-567v191h696z" />
    <glyph glyph-name="AE" unicode="&#xc6;" horiz-adv-x="2052" 
d="M504 541h414v682h-166zM-14 0l581 1473h1366v-256h-723v-314h658v-252h-658v-379h760v-272h-1052v303h-500l-111 -303h-321z" />
    <glyph glyph-name="Oslash" unicode="&#xd8;" horiz-adv-x="1616" 
d="M512 348q58 -63 131 -94t164 -31q196 0 305 134.5t109 377.5q0 99 -18 179.5t-52 140.5zM449 449l632 696q-53 51 -121 76.5t-153 25.5q-194 0 -302 -134t-108 -378q0 -90 12.5 -160t39.5 -126zM55 23l183 204q-76 103 -113 229.5t-37 278.5q0 357 194.5 566.5
t524.5 209.5q141 0 253.5 -36t207.5 -111l147 166l98 -88l-155 -168q85 -105 127.5 -239t42.5 -300q0 -356 -195 -566t-526 -210q-149 0 -268.5 42t-214.5 128l-172 -195z" />
    <glyph glyph-name="infinity" unicode="&#x221e;" horiz-adv-x="1706" 
d="M942 561q45 -75 106.5 -113t139.5 -38q94 0 152.5 55.5t58.5 144.5q0 86 -54 142.5t-135 56.5q-74 0 -136 -57t-132 -191zM766 659q-46 76 -107 113t-139 37q-93 0 -152 -56.5t-59 -144.5q0 -85 54 -141.5t135 -56.5q75 0 138 58t130 191zM858 457q-69 -133 -147 -195.5
t-174 -62.5q-139 0 -235.5 117.5t-96.5 293.5q0 184 85.5 297t223.5 113q93 0 169.5 -58.5t164.5 -199.5q68 132 148 196t175 64q139 0 235.5 -118t96.5 -294q0 -183 -86 -296t-223 -113q-93 0 -168.5 56.5t-167.5 199.5z" />
    <glyph glyph-name="plusminus" unicode="&#xb1;" horiz-adv-x="1706" 
d="M254 197h1198v-199h-1198v199zM752 1223h202v-326h498v-199h-498v-325h-202v325h-498v199h498v326z" />
    <glyph glyph-name="lessequal" unicode="&#x2264;" horiz-adv-x="1706" 
d="M258 195h1192v-197h-1192v197zM1448 1241v-209l-834 -264l834 -262v-209l-1190 385v174z" />
    <glyph glyph-name="greaterequal" unicode="&#x2265;" horiz-adv-x="1706" 
d="M258 195h1192v-197h-1192v197zM260 1241l1188 -385v-174l-1188 -385v209l832 262l-832 264v209z" />
    <glyph glyph-name="yen" unicode="&#xa5;" horiz-adv-x="1229" 
d="M776 0h-289v518l-20 35h-449v113h383l-73 127h-310v112h244l-278 486h325l322 -631l299 631h305l-256 -486h233v-112h-292l-68 -127h360v-113h-419l-17 -35v-518z" />
    <glyph glyph-name="mu" unicode="&#xb5;" horiz-adv-x="1249" 
d="M205 1092h289l-76 -435q-15 -80 -23 -151.5t-8 -116.5q0 -93 42 -138.5t128 -45.5q100 0 155.5 82t92.5 291l90 514h289l-193 -1092h-268l18 117q-42 -78 -93.5 -114t-121.5 -36q-67 0 -119 29.5t-94 91.5l-90 -526h-286z" />
    <glyph glyph-name="partialdiff" unicode="&#x2202;" horiz-adv-x="1094" 
d="M762 662q19 99 29 188.5t10 155.5q0 100 -26 157.5t-70 57.5t-146 -73t-160 -73q-42 0 -71 30t-29 73q0 64 86.5 118t210.5 54q192 0 309 -161.5t117 -432.5q0 -339 -156.5 -560t-396.5 -221q-171 0 -282 114.5t-111 291.5q0 198 116 329.5t287 131.5q102 0 170 -43.5
t113 -136.5zM700 518q0 116 -38.5 178t-110.5 62q-101 0 -167.5 -134t-66.5 -341q0 -117 38.5 -177.5t111.5 -60.5q101 0 167 133.5t66 339.5z" />
    <glyph glyph-name="summation" unicode="&#x2211;" horiz-adv-x="1470" 
d="M66 1473h1308v-265h-878l620 -645l-622 -690h933v-266h-1386v172l698 772l-673 690v232z" />
    <glyph glyph-name="product" unicode="&#x220f;" horiz-adv-x="1612" 
d="M150 1473h1308v-1866h-344v1577h-620v-1577h-344v1866z" />
    <glyph glyph-name="pi" unicode="&#x3c0;" horiz-adv-x="1319" 
d="M1354 1092l-39 -224h-176l-154 -868h-287l152 868h-238l-151 -868h-287l152 868h-25q-55 0 -84 -31t-39 -99l-213 -1q30 200 123 277.5t311 77.5h955z" />
    <glyph glyph-name="integral" unicode="&#x222b;" horiz-adv-x="1186" 
d="M342 -252q102 0 121 639q3 136 6 211q16 508 123 732t328 224q98 0 157.5 -49t59.5 -129q0 -60 -38 -96.5t-100 -36.5q-46 0 -77 24t-41 68q-5 20 -7 54q-3 46 -30 47q-99 0 -119 -633q-4 -116 -6 -178q-11 -296 -31 -444.5t-59 -250.5q-56 -148 -148.5 -225.5
t-214.5 -77.5q-96 0 -156.5 49t-60.5 127q0 62 39 99t105 37q50 0 85 -31.5t35 -71.5q0 -58 6 -73t23 -15z" />
    <glyph glyph-name="ordfeminine" unicode="&#xaa;" horiz-adv-x="864" 
d="M100 549h668v-125h-668v125zM551 1079q-53 -18 -139 -37q-140 -32 -140 -104q0 -40 25.5 -62t73.5 -22q84 0 132 44.5t48 121.5v59zM778 1290v-432q0 -45 11 -68t36 -34v-45h-243q-12 19 -18.5 38.5t-8.5 40.5q-36 -51 -101.5 -78.5t-152.5 -27.5q-124 0 -191 64.5
t-67 183.5q0 108 65 168.5t202 79.5q38 5 100 12q137 14 137 68q0 42 -27 59.5t-96 17.5q-63 0 -95 -22t-32 -66v-16h-225v18q0 123 91 191.5t253 68.5q176 0 269 -56.5t93 -164.5z" />
    <glyph glyph-name="ordmasculine" unicode="&#xba;" horiz-adv-x="934" 
d="M106 549h723v-125h-723v125zM467 1325q-87 0 -133.5 -59t-46.5 -168q0 -111 46 -169.5t134 -58.5q87 0 134.5 59.5t47.5 168.5q0 108 -48 167.5t-134 59.5zM467 1511q197 0 310.5 -110.5t113.5 -302.5q0 -194 -113 -304t-311 -110t-310 110t-112 304q0 193 112.5 303
t309.5 110z" />
    <glyph glyph-name="Omega" unicode="&#x3a9;" horiz-adv-x="1575" 
d="M1227 256h291v-256h-609v291q126 86 192 217.5t66 296.5q0 203 -101.5 319.5t-279.5 116.5q-177 0 -278.5 -116.5t-101.5 -319.5q0 -164 66 -296.5t192 -217.5v-291h-609v256h291q-126 121 -187 260t-61 303q0 313 188 501.5t500 188.5q313 0 501 -188.5t188 -501.5
q0 -164 -61 -303t-187 -260z" />
    <glyph glyph-name="ae" unicode="&#xe6;" horiz-adv-x="1810" 
d="M1002 659h440v7q0 107 -59.5 168t-163.5 61q-97 0 -155.5 -63.5t-61.5 -172.5zM739 530q-72 -32 -177.5 -54t-132.5 -35q-38 -18 -57.5 -51t-19.5 -79q0 -62 40.5 -95.5t115.5 -33.5q96 0 163.5 62t67.5 147v139zM850 154q-68 -97 -176 -144t-264 -47q-165 0 -252.5 88.5
t-87.5 255.5q0 147 82.5 231t250.5 109q44 6 118 16q212 26 212 111q0 70 -38 95.5t-142 25.5q-83 0 -126.5 -35.5t-43.5 -103.5v-8h-274v22q0 167 120.5 261.5t335.5 94.5q111 0 201 -30t147 -86q62 60 140 88t182 28q242 0 375 -152.5t133 -430.5q0 -31 -0.5 -46.5
t-2.5 -29.5h-738q1 -128 62 -198t171 -70q70 0 121 33t84 100h291q-41 -174 -177.5 -271.5t-339.5 -97.5q-124 0 -216.5 48.5t-147.5 142.5z" />
    <glyph glyph-name="oslash" unicode="&#xf8;" horiz-adv-x="1245" 
d="M434 281q37 -43 81 -62.5t103 -19.5q130 0 198.5 89.5t68.5 260.5q0 47 -6.5 90.5t-20.5 83.5zM809 811q-38 39 -81.5 58.5t-94.5 19.5q-136 0 -205.5 -89t-69.5 -263q0 -44 7.5 -86.5t21.5 -83.5zM39 10l145 152q-58 79 -86 172.5t-28 210.5q0 270 150 426.5t409 156.5
q104 0 193 -30t167 -92l135 145l78 -74l-141 -149q57 -74 85 -168.5t28 -218.5q0 -268 -149.5 -424t-403.5 -156q-115 0 -204 29.5t-161 91.5l-139 -148z" />
    <glyph glyph-name="questiondown" unicode="&#xbf;" horiz-adv-x="1143" 
d="M719 1473v-295h-297v295h297zM705 1044q0 -10 1 -29t1 -28q0 -87 -19 -146t-61 -110q-33 -38 -96.5 -87t-81.5 -71q-39 -44 -54.5 -81t-15.5 -80q0 -96 52 -148.5t147 -52.5q94 0 149 63.5t60 178.5h284v-31q0 -212 -133.5 -337.5t-359.5 -125.5q-231 0 -367.5 119.5
t-136.5 318.5q0 73 15 128t46 100q40 56 126 122t106 84q38 37 54.5 78.5t16.5 100.5q0 5 -1 16.5t-1 17.5h269z" />
    <glyph glyph-name="exclamdown" unicode="&#xa1;" horiz-adv-x="676" 
d="M485 1473v-295h-297v295h297zM414 1063l78 -666v-397h-308v397l78 666h152z" />
    <glyph glyph-name="logicalnot" unicode="&#xac;" horiz-adv-x="1706" 
d="M254 864h1198v-502h-199v306h-999v196z" />
    <glyph glyph-name="radical" unicode="&#x221a;" horiz-adv-x="1346" 
d="M1141 1694h207v-129h-103l-592 -1606h-100l-311 858l-140 -51l-30 113l331 116l236 -661z" />
    <glyph glyph-name="florin" unicode="&#x192;" horiz-adv-x="1161" 
d="M-10 -389l61 229q32 -15 58.5 -22.5t46.5 -7.5q60 0 90 38.5t47 145.5l127 790h-242v197h277l22 125q40 220 126.5 312.5t248.5 92.5q50 0 102.5 -10.5t110.5 -32.5l-57 -219q-30 15 -57.5 22t-51.5 7q-64 0 -96 -40t-47 -142l-19 -115h256v-197h-280l-97 -602
q-29 -191 -56 -295t-58 -155q-55 -88 -126 -128t-171 -40q-52 0 -105 11.5t-110 35.5z" />
    <glyph glyph-name="approxequal" unicode="&#x2248;" horiz-adv-x="1706" 
d="M1530 596v-219q-106 -72 -198 -105.5t-181 -33.5q-95 0 -286.5 66.5t-301.5 66.5q-84 0 -174.5 -37t-210.5 -121v219q111 73 206.5 108t180.5 35q124 0 315.5 -65.5t274.5 -65.5q86 0 174 35.5t201 116.5zM1530 1008v-220q-106 -71 -196.5 -104t-180.5 -33
q-94 0 -286 65.5t-304 65.5q-82 0 -170 -35t-215 -122v219q107 71 204 107t183 36q125 0 316.5 -65.5t273.5 -65.5q84 0 171 35t204 117z" />
    <glyph glyph-name="Delta" unicode="&#x2206;" horiz-adv-x="1427" 
d="M713 1110l-326 -854h653zM563 1473h301l563 -1473h-1427z" />
    <glyph glyph-name="guillemotleft" unicode="&#xab;" horiz-adv-x="915" 
d="M504 416v256l334 289v-238l-205 -178l205 -178v-240zM72 416v256l336 289v-238l-205 -178l205 -178v-240z" />
    <glyph glyph-name="guillemotright" unicode="&#xbb;" horiz-adv-x="915" 
d="M838 672v-256l-334 -289v238l205 180l-205 176v240zM408 672v-256l-336 -289v238l204 180l-204 176v240z" />
    <glyph glyph-name="ellipsis" unicode="&#x2026;" horiz-adv-x="2048" 
d="M190 0v301h301v-301h-301zM872 0v301h301v-301h-301zM1556 0v301h301v-301h-301z" />
    <glyph glyph-name="nonbreakingspace" unicode="&#xa0;" horiz-adv-x="1161" 
 />
    <glyph glyph-name="Agrave" unicode="&#xc0;" horiz-adv-x="1405" 
d="M700 1178l-204 -627h409zM524 1473h350l531 -1473h-318l-100 303h-571l-97 -303h-319zM409 1972h258l197 -370h-142z" />
    <glyph glyph-name="Atilde" unicode="&#xc3;" horiz-adv-x="1405" 
d="M700 1178l-204 -627h409zM524 1473h350l531 -1473h-318l-100 303h-571l-97 -303h-319zM1019 1923q-26 -125 -77 -184.5t-131 -59.5q-21 0 -39 2.5t-36 8.5l-87 26q-19 5 -35 7.5t-31 2.5q-34 0 -55 -18t-33 -59h-110q24 121 74 178t130 57q21 0 42 -3.5t44 -10.5l93 -25
q12 -4 25.5 -6t29.5 -2q32 0 53.5 21.5t32.5 64.5h110z" />
    <glyph glyph-name="Otilde" unicode="&#xd5;" horiz-adv-x="1616" 
d="M397 735q0 -243 108 -377.5t302 -134.5q196 0 305 134.5t109 377.5t-109 377.5t-305 134.5q-194 0 -302 -134t-108 -378zM88 735q0 357 194.5 566.5t524.5 209.5t525.5 -210t195.5 -566t-195.5 -566t-525.5 -210t-524.5 210t-194.5 566zM1126 1923q-26 -125 -77 -184.5
t-131 -59.5q-21 0 -39 2.5t-36 8.5l-87 26q-19 5 -35 7.5t-31 2.5q-34 0 -55 -18t-33 -59h-110q24 121 74 178t130 57q21 0 42 -3.5t44 -10.5l93 -25q12 -4 25.5 -6t29.5 -2q32 0 53.5 21.5t32.5 64.5h110z" />
    <glyph glyph-name="OE" unicode="&#x152;" horiz-adv-x="2310" 
d="M1130 0v102q-88 -72 -184.5 -107.5t-208.5 -35.5q-290 0 -469.5 213.5t-179.5 562.5q0 351 179.5 564.5t471.5 213.5q111 0 207.5 -35t183.5 -108v103h1063v-256h-770v-314h705v-252h-705v-379h807v-272h-1100zM1130 346v778q-73 70 -151 103t-172 33q-204 0 -307 -132
t-103 -393q0 -258 103.5 -390t306.5 -132q95 0 173.5 32.5t149.5 100.5z" />
    <glyph glyph-name="oe" unicode="&#x153;" horiz-adv-x="1948" 
d="M1137 660h444q-3 113 -61.5 175t-163.5 62q-96 0 -156.5 -65t-62.5 -172zM362 553q0 -166 67.5 -260t184.5 -94q129 0 199 92t70 264q0 159 -68.5 248.5t-189.5 89.5q-127 0 -195 -88t-68 -252zM995 123q-67 -81 -161.5 -120.5t-221.5 -39.5q-255 0 -396.5 155
t-141.5 435q0 268 144.5 420.5t397.5 152.5q133 0 230 -40t162 -121q60 83 150 122t220 39q237 0 367.5 -153t130.5 -430q0 -31 -0.5 -46.5t-2.5 -29.5h-736q0 -125 58.5 -194.5t162.5 -69.5q79 0 132.5 30t82.5 91h289q-31 -162 -171.5 -261.5t-338.5 -99.5
q-116 0 -202 38.5t-155 121.5z" />
    <glyph glyph-name="endash" unicode="&#x2013;" 
d="M0 434v221h1024v-221h-1024z" />
    <glyph glyph-name="emdash" unicode="&#x2014;" horiz-adv-x="2048" 
d="M0 655h2048v-221h-2048v221z" />
    <glyph glyph-name="quotedblleft" unicode="&#x201c;" horiz-adv-x="901" 
d="M809 1214v-264h-279v258q0 127 78 212t201 91v-102q-75 -18 -112.5 -62.5t-37.5 -115.5v-17h150zM369 1214v-264h-279v258q0 127 78 212t201 91v-102q-76 -18 -113 -63.5t-37 -118.5v-13h150z" />
    <glyph glyph-name="quotedblright" unicode="&#x201d;" horiz-adv-x="901" 
d="M530 1208v265h279v-261q0 -126 -78 -211.5t-201 -91.5v103q75 18 112.5 63t37.5 117v16h-150zM90 1208v265h279v-261q0 -126 -78 -211.5t-201 -91.5v103q76 18 113 63.5t37 120.5v12h-150z" />
    <glyph glyph-name="quoteleft" unicode="&#x2018;" horiz-adv-x="532" 
d="M406 1214v-264h-279v258q0 127 78 212t201 91v-102q-76 -18 -113 -63.5t-37 -118.5v-13h150z" />
    <glyph glyph-name="quoteright" unicode="&#x2019;" horiz-adv-x="532" 
d="M127 1208v265h279v-261q0 -126 -78 -211.5t-201 -91.5v103q76 18 112.5 63.5t36.5 120.5v12h-149z" />
    <glyph glyph-name="divide" unicode="&#xf7;" horiz-adv-x="1706" 
d="M854 369q62 0 107 -45t45 -107q0 -61 -45 -105t-107 -44q-63 0 -107.5 43t-44.5 106t44.5 107.5t107.5 44.5zM254 711h1198v-199h-1198v199zM854 1155q62 0 107 -44.5t45 -106.5q0 -63 -44.5 -107.5t-107.5 -44.5t-107.5 44.5t-44.5 107.5t44.5 107t107.5 44z" />
    <glyph glyph-name="lozenge" unicode="&#x25ca;" horiz-adv-x="1012" 
d="M506 1409l-385 -817l385 -825l385 825zM506 1653l500 -1061l-500 -1069l-500 1069z" />
    <glyph glyph-name="ydieresis" unicode="&#xff;" horiz-adv-x="1100" 
d="M170 -436v235q14 -2 29 -3t39 -1q86 0 129 40.5t43 121.5q0 6 -2 15t-4 15l-392 1100h320l229 -784l223 784h306l-447 -1282q-50 -144 -125 -196.5t-225 -52.5q-27 0 -58 2t-65 6zM612 1276v246h226v-246h-226zM264 1276v246h226v-246h-226z" />
    <glyph glyph-name="Ydieresis" unicode="&#x178;" horiz-adv-x="1274" 
d="M811 0h-303v549l-535 924h371l315 -635l291 635h346l-485 -924v-549zM698 1661v246h226v-246h-226zM350 1661v246h226v-246h-226z" />
    <glyph glyph-name="fraction" unicode="&#x2215;" horiz-adv-x="342" 
d="M-346 -41l870 1493h164l-872 -1493h-162z" />
    <glyph glyph-name="currency" unicode="&#xa4;" horiz-adv-x="1241" 
d="M623 1161q-113 0 -195 -82t-82 -194q0 -114 81 -194.5t196 -80.5q113 0 194.5 80.5t81.5 194.5q0 112 -81.5 194t-194.5 82zM172 1438l205 -203q54 39 114 58.5t130 19.5t131.5 -19.5t115.5 -58.5l203 203l105 -107l-203 -205q38 -53 57 -113.5t19 -127.5t-19 -127
t-57 -115l203 -205l-105 -104l-203 203q-54 -40 -115 -59t-130 -19q-72 0 -132.5 19t-113.5 59l-205 -203l-104 104l202 205q-38 54 -56.5 113.5t-18.5 128.5q0 67 18.5 127.5t56.5 113.5l-202 205z" />
    <glyph glyph-name="guilsinglleft" unicode="&#x2039;" horiz-adv-x="485" 
d="M72 416v256l336 289v-238l-205 -178l205 -178v-240z" />
    <glyph glyph-name="guilsinglright" unicode="&#x203a;" horiz-adv-x="485" 
d="M412 672v-256l-334 -289v238l205 180l-205 176v240z" />
    <glyph glyph-name="fi" unicode="&#xf001;" horiz-adv-x="1196" 
d="M776 1208v265h285v-265h-285zM776 0v1087h285v-1087h-285zM178 0v883h-155v204h155v101q0 152 78.5 223.5t247.5 71.5q31 0 65.5 -1.5t73.5 -5.5v-231h-76q-65 0 -85.5 -17t-20.5 -65v-76h182v-204h-180v-883h-285z" />
    <glyph glyph-name="fl" unicode="&#xf002;" horiz-adv-x="1194" 
d="M776 0v1473h285v-1473h-285zM178 0v883h-155v204h155v101q0 152 78.5 223.5t247.5 71.5q31 0 65.5 -1.5t73.5 -5.5v-231h-76q-65 0 -85.5 -17t-20.5 -65v-76h182v-204h-180v-883h-285z" />
    <glyph glyph-name="daggerdbl" unicode="&#x2021;" 
d="M393 -217v377h-334v190h334v551h-334v191h334v381h238v-381h334v-191h-334v-551h334v-190h-334v-377h-238z" />
    <glyph glyph-name="periodcentered" unicode="&#xb7;" horiz-adv-x="582" 
d="M135 702q0 65 45.5 110.5t110.5 45.5t110 -45t45 -111q0 -65 -45 -110t-110 -45q-66 0 -111 44.5t-45 110.5z" />
    <glyph glyph-name="quotesinglbase" unicode="&#x201a;" horiz-adv-x="532" 
d="M127 0v264h279v-258q0 -126 -78 -211.5t-201 -91.5v102q75 20 112 65.5t37 117.5v12h-149z" />
    <glyph glyph-name="quotedblbase" unicode="&#x201e;" horiz-adv-x="901" 
d="M530 0v264h279v-258q0 -126 -78 -211.5t-201 -91.5v102q76 19 113 64t37 119v12h-150zM90 0v264h279v-258q0 -126 -78 -211.5t-201 -91.5v102q76 20 113 65.5t37 117.5v12h-150z" />
    <glyph glyph-name="perthousand" unicode="&#x2030;" horiz-adv-x="2632" 
d="M2040 332q0 -67 45 -112.5t110 -45.5t110.5 46.5t45.5 111.5q0 64 -45.5 109.5t-110.5 45.5q-66 0 -110.5 -44.5t-44.5 -110.5zM1823 332q0 156 108 263t264 107q154 0 262.5 -108.5t108.5 -261.5q0 -154 -108.5 -263.5t-262.5 -109.5q-156 0 -264 108t-108 265z
M1169 332q0 -67 45 -112.5t111 -45.5q64 0 110 46.5t46 111.5q0 64 -45.5 109.5t-110.5 45.5q-66 0 -111 -44.5t-45 -110.5zM952 332q0 156 108 263t265 107q154 0 262.5 -108.5t108.5 -261.5q0 -154 -109 -263.5t-262 -109.5q-157 0 -265 108t-108 265zM371 -41l854 1473
h161l-854 -1473h-161zM283 1059q0 -66 44.5 -111t110.5 -45q65 0 110.5 45.5t45.5 110.5q0 64 -45.5 109.5t-110.5 45.5q-66 0 -110.5 -44.5t-44.5 -110.5zM66 1059q0 156 108 264.5t264 108.5q154 0 262.5 -109.5t108.5 -263.5t-108.5 -262.5t-262.5 -108.5
q-157 0 -264.5 107t-107.5 264z" />
    <glyph glyph-name="Acircumflex" unicode="&#xc2;" horiz-adv-x="1405" 
d="M700 1178l-204 -627h409zM524 1473h350l531 -1473h-318l-100 303h-571l-97 -303h-319zM387 1602l196 370h238l196 -370h-141l-174 217l-176 -217h-139z" />
    <glyph glyph-name="Ecircumflex" unicode="&#xca;" horiz-adv-x="1337" 
d="M152 0v1473h1069v-256h-770v-314h704v-252h-704v-379h806v-272h-1105zM373 1602l196 370h238l196 -370h-141l-174 217l-176 -217h-139z" />
    <glyph glyph-name="Aacute" unicode="&#xc1;" horiz-adv-x="1405" 
d="M700 1178l-204 -627h409zM524 1473h350l531 -1473h-318l-100 303h-571l-97 -303h-319zM995 1972l-313 -370h-142l197 370h258z" />
    <glyph glyph-name="Edieresis" unicode="&#xcb;" horiz-adv-x="1337" 
d="M152 0v1473h1069v-256h-770v-314h704v-252h-704v-379h806v-272h-1105zM749 1661v246h226v-246h-226zM401 1661v246h226v-246h-226z" />
    <glyph glyph-name="Egrave" unicode="&#xc8;" horiz-adv-x="1337" 
d="M152 0v1473h1069v-256h-770v-314h704v-252h-704v-379h806v-272h-1105zM395 1972h258l197 -370h-142z" />
    <glyph glyph-name="Iacute" unicode="&#xcd;" horiz-adv-x="629" 
d="M162 0v1473h303v-1473h-303zM608 1972l-313 -370h-142l197 370h258z" />
    <glyph glyph-name="Icircumflex" unicode="&#xce;" horiz-adv-x="629" 
d="M162 0v1473h303v-1473h-303zM0 1602l196 370h238l196 -370h-141l-174 217l-176 -217h-139z" />
    <glyph glyph-name="Idieresis" unicode="&#xcf;" horiz-adv-x="629" 
d="M162 0v1473h303v-1473h-303zM376 1661v246h226v-246h-226zM28 1661v246h226v-246h-226z" />
    <glyph glyph-name="Igrave" unicode="&#xcc;" horiz-adv-x="629" 
d="M162 0v1473h303v-1473h-303zM22 1972h258l197 -370h-142z" />
    <glyph glyph-name="Oacute" unicode="&#xd3;" horiz-adv-x="1616" 
d="M397 735q0 -243 108 -377.5t302 -134.5q196 0 305 134.5t109 377.5t-109 377.5t-305 134.5q-194 0 -302 -134t-108 -378zM88 735q0 357 194.5 566.5t524.5 209.5t525.5 -210t195.5 -566t-195.5 -566t-525.5 -210t-524.5 210t-194.5 566zM1102 1972l-313 -370h-142
l197 370h258z" />
    <glyph glyph-name="Ocircumflex" unicode="&#xd4;" horiz-adv-x="1616" 
d="M397 735q0 -243 108 -377.5t302 -134.5q196 0 305 134.5t109 377.5t-109 377.5t-305 134.5q-194 0 -302 -134t-108 -378zM88 735q0 357 194.5 566.5t524.5 209.5t525.5 -210t195.5 -566t-195.5 -566t-525.5 -210t-524.5 210t-194.5 566zM494 1602l196 370h238l196 -370
h-141l-174 217l-176 -217h-139z" />
    <glyph glyph-name="apple" unicode="&#xf000;" horiz-adv-x="1618" 
d="M836 1216q-1 6 -1.5 14t-0.5 23q0 124 95 229.5t236 131.5q1 -10 1.5 -23t0.5 -39q0 -131 -103.5 -234.5t-203.5 -103.5h-8q-3 0 -7.5 1t-8.5 1zM1505 403q-114 -247 -205 -342.5t-204 -95.5q-50 0 -131.5 33t-122.5 33q-45 0 -131 -33t-127 -33q-64 0 -128.5 44
t-129.5 132q-102 140 -157.5 295.5t-55.5 300.5q0 219 125 356.5t323 137.5q68 0 155 -34t124 -34q34 0 121.5 35t152.5 35q110 0 198 -40t161 -124q-102 -65 -151.5 -145.5t-49.5 -182.5q0 -113 60 -200t173 -138z" />
    <glyph glyph-name="Ograve" unicode="&#xd2;" horiz-adv-x="1616" 
d="M397 735q0 -243 108 -377.5t302 -134.5q196 0 305 134.5t109 377.5t-109 377.5t-305 134.5q-194 0 -302 -134t-108 -378zM88 735q0 357 194.5 566.5t524.5 209.5t525.5 -210t195.5 -566t-195.5 -566t-525.5 -210t-524.5 210t-194.5 566zM516 1972h258l197 -370h-142z" />
    <glyph glyph-name="Uacute" unicode="&#xda;" horiz-adv-x="1468" 
d="M143 1477h306v-924q0 -171 68 -249.5t216 -78.5q150 0 218.5 78t68.5 250v924h303v-957q0 -271 -151.5 -416t-436.5 -145q-287 0 -439.5 144.5t-152.5 416.5v957zM1028 1972l-313 -370h-142l197 370h258z" />
    <glyph glyph-name="Ucircumflex" unicode="&#xdb;" horiz-adv-x="1468" 
d="M143 1477h306v-924q0 -171 68 -249.5t216 -78.5q150 0 218.5 78t68.5 250v924h303v-957q0 -271 -151.5 -416t-436.5 -145q-287 0 -439.5 144.5t-152.5 416.5v957zM420 1602l196 370h238l196 -370h-141l-174 217l-176 -217h-139z" />
    <glyph glyph-name="Ugrave" unicode="&#xd9;" horiz-adv-x="1468" 
d="M143 1477h306v-924q0 -171 68 -249.5t216 -78.5q150 0 218.5 78t68.5 250v924h303v-957q0 -271 -151.5 -416t-436.5 -145q-287 0 -439.5 144.5t-152.5 416.5v957zM442 1972h258l197 -370h-142z" />
    <glyph glyph-name="dotlessi" unicode="&#x131;" horiz-adv-x="557" 
d="M133 0v1087h291v-1087h-291z" />
    <glyph glyph-name="circumflex" unicode="&#x2c6;" 
d="M197 1217l196 370h238l196 -370h-141l-174 217l-176 -217h-139z" />
    <glyph glyph-name="tilde" unicode="&#x2dc;" 
d="M829 1538q-26 -125 -77 -184.5t-131 -59.5q-21 0 -39 2.5t-36 8.5l-87 26q-19 5 -35 7.5t-31 2.5q-34 0 -55 -18t-33 -59h-110q24 121 74 178t130 57q21 0 42 -3.5t44 -10.5l93 -25q12 -4 25.5 -6t29.5 -2q32 0 53.5 21.5t32.5 64.5h110z" />
    <glyph glyph-name="macron" unicode="&#xaf;" 
d="M225 1321v156h574v-156h-574z" />
    <glyph glyph-name="breve" unicode="&#x2d8;" 
d="M203 1552h123q6 -76 50.5 -111.5t135.5 -35.5q90 0 134 35t50 112h123q-11 -156 -85 -229.5t-222 -73.5q-147 0 -222.5 74t-86.5 229z" />
    <glyph glyph-name="dotaccent" unicode="&#x2d9;" 
d="M395 1270v258h236v-258h-236z" />
    <glyph glyph-name="ring" unicode="&#x2da;" 
d="M391 1442q0 -53 34.5 -88t86.5 -35t88.5 36t36.5 87q0 50 -37 86.5t-88 36.5q-52 0 -86.5 -35.5t-34.5 -87.5zM248 1442q0 111 76.5 188.5t187.5 77.5q112 0 190 -77.5t78 -188.5q0 -112 -77.5 -189t-190.5 -77q-112 0 -188 76.5t-76 189.5z" />
    <glyph glyph-name="cedilla" unicode="&#xb8;" 
d="M283 -438v129q80 -21 145 -32t111 -11q52 0 76 17.5t24 55.5t-28 54t-93 16q-23 0 -35 -0.5t-22 -1.5v211h102v-90h15q117 0 176 -48t59 -143q0 -100 -66 -150t-198 -50q-51 0 -119.5 11t-146.5 32z" />
    <glyph glyph-name="hungarumlaut" unicode="&#x2dd;" 
d="M563 1217l154 370h229l-270 -370h-113zM295 1217l115 370h221l-232 -370h-104z" />
    <glyph glyph-name="ogonek" unicode="&#x2db;" 
d="M627 0q-63 -51 -95 -102.5t-32 -102.5q0 -40 20 -60t62 -20h102v-174h-106q-118 0 -178 46.5t-60 138.5q0 71 45 136t145 138h97z" />
    <glyph glyph-name="caron" unicode="&#x2c7;" 
d="M197 1587h139l176 -219l174 219h141l-196 -370h-238z" />
    <glyph glyph-name="Lslash" unicode="&#x141;" horiz-adv-x="1196" 
d="M162 0v547l-115 -80l-110 160l225 155v691h303v-510l336 235l112 -158l-448 -313v-455h719v-272h-1022z" />
    <glyph glyph-name="lslash" unicode="&#x142;" horiz-adv-x="575" 
d="M143 0v559l-104 -78l-102 135l206 156v701h291v-527l103 78l104 -135l-207 -154v-735h-291z" />
    <glyph glyph-name="Scaron" unicode="&#x160;" horiz-adv-x="1366" 
d="M84 455h299q17 -121 99 -179.5t237 -58.5q132 0 199 47t67 139q0 134 -385 222q-5 1 -9 2q-10 2 -31 7q-206 45 -294 101q-78 50 -119 134.5t-41 199.5q0 215 146 329.5t422 114.5q258 0 403.5 -122t153.5 -344h-291q-8 107 -82 163t-211 56q-119 0 -183.5 -46.5
t-64.5 -132.5q0 -117 251 -175q68 -16 106 -25q161 -41 228.5 -64t117.5 -51q90 -50 135 -132.5t45 -197.5q0 -230 -155 -356.5t-437 -126.5q-278 0 -436 129t-170 367zM369 1972h139l176 -219l174 219h141l-196 -370h-238z" />
    <glyph glyph-name="scaron" unicode="&#x161;" horiz-adv-x="1118" 
d="M66 354h290q4 -83 60 -123.5t168 -40.5q85 0 131.5 28.5t46.5 80.5q0 74 -174 111q-71 15 -113 26q-212 54 -294.5 128t-82.5 200q0 167 120.5 264.5t326.5 97.5q218 0 342.5 -97t132.5 -273h-283q-3 69 -52.5 107t-137.5 38q-83 0 -123.5 -25t-40.5 -75q0 -65 217 -115
q50 -11 79 -18q217 -51 296.5 -123t79.5 -203q0 -185 -130.5 -282t-379.5 -97q-225 0 -352 101t-127 278v12zM244 1587h139l176 -219l174 219h141l-196 -370h-238z" />
    <glyph glyph-name="Zcaron" unicode="&#x17d;" horiz-adv-x="1231" 
d="M37 0v256l801 950h-785v267h1153v-256l-803 -951h785v-266h-1151zM301 1972h139l176 -219l174 219h141l-196 -370h-238z" />
    <glyph glyph-name="zcaron" unicode="&#x17e;" horiz-adv-x="1036" 
d="M35 0v223l596 633h-561v231h909v-237l-588 -608h608v-242h-964zM203 1587h139l176 -219l174 219h141l-196 -370h-238z" />
    <glyph glyph-name="brokenbar" unicode="&#xa6;" 
d="M410 408h206v-758h-206v758zM410 1432h206v-758h-206v758z" />
    <glyph glyph-name="Eth" unicode="&#xd0;" horiz-adv-x="1497" 
d="M455 266h243q212 0 307 111t95 358q0 246 -88.5 362.5t-276.5 116.5h-280v-327h323v-191h-323v-430zM158 0v696h-160v191h160v586h579q338 0 504 -182.5t166 -555.5q0 -203 -60.5 -357t-177.5 -247q-88 -70 -200.5 -100.5t-315.5 -30.5h-495z" />
    <glyph glyph-name="eth" unicode="&#xf0;" horiz-adv-x="1247" 
d="M721 1004q-37 47 -87 92t-114 88l-289 -144l-57 117l219 109q-56 34 -190 97l-2 1l80 145q79 -24 166.5 -60.5t185.5 -86.5l289 141l57 -114l-223 -111q212 -151 317 -339t105 -419q0 -261 -147.5 -409t-407.5 -148q-259 0 -405 144t-146 399q0 237 135.5 386.5
t345.5 149.5q44 0 85.5 -9.5t82.5 -28.5zM367 520q0 -150 66.5 -231.5t189.5 -81.5q122 0 188 81t66 232q0 150 -66 230.5t-188 80.5q-123 0 -189.5 -81t-66.5 -230z" />
    <glyph glyph-name="Yacute" unicode="&#xdd;" horiz-adv-x="1274" 
d="M811 0h-303v549l-535 924h371l315 -635l291 635h346l-485 -924v-549zM930 1972l-313 -370h-142l197 370h258z" />
    <glyph glyph-name="yacute" unicode="&#xfd;" horiz-adv-x="1100" 
d="M170 -436v235q14 -2 29 -3t39 -1q86 0 129 40.5t43 121.5q0 6 -2 15t-4 15l-392 1100h320l229 -784l223 784h306l-447 -1282q-50 -144 -125 -196.5t-225 -52.5q-27 0 -58 2t-65 6zM844 1587l-313 -370h-142l197 370h258z" />
    <glyph glyph-name="Thorn" unicode="&#xde;" horiz-adv-x="1346" 
d="M451 1243h344q228 0 345 -112.5t117 -331.5q0 -214 -114.5 -329.5t-327.5 -115.5h-364v-354h-299v1473h299v-230zM453 600h292q120 0 174 47.5t54 151.5q0 97 -54 146.5t-159 49.5h-307v-395z" />
    <glyph glyph-name="thorn" unicode="&#xfe;" horiz-adv-x="1255" 
d="M895 537q0 164 -62 250.5t-180 86.5q-116 0 -176.5 -86t-60.5 -251q0 -154 63.5 -238t179.5 -84q110 0 173 86t63 236zM133 -436v1909h283v-527q60 91 137.5 134.5t179.5 43.5q201 0 326 -158.5t125 -416.5q0 -261 -125 -423.5t-322 -162.5q-104 0 -185.5 44t-135.5 128
v-571h-283z" />
    <glyph glyph-name="minus" unicode="&#x2212;" horiz-adv-x="1706" 
d="M254 713h1198v-203h-1198v203z" />
    <glyph glyph-name="multiply" unicode="&#xd7;" horiz-adv-x="1706" 
d="M416 1202l450 -450l451 450l141 -139l-450 -453l450 -450l-141 -140l-451 451l-450 -451l-140 140l451 450l-451 453z" />
    <glyph glyph-name="onesuperior" unicode="&#xb9;" horiz-adv-x="766" 
d="M334 557v588h-228v121h17q122 0 178.5 34t67.5 113h151v-856h-186z" />
    <glyph glyph-name="twosuperior" unicode="&#xb2;" horiz-adv-x="766" 
d="M31 557q3 116 55.5 196t185.5 162q19 11 53 31q185 105 185 203q0 57 -37 90t-102 33q-72 0 -111 -40.5t-39 -115.5v-8h-174q0 147 87 226t249 79q146 0 232.5 -71.5t86.5 -190.5q0 -86 -45 -148t-176 -143q-29 -19 -82 -50q-120 -70 -135 -110h430v-143h-663z" />
    <glyph glyph-name="threesuperior" unicode="&#xb3;" horiz-adv-x="766" 
d="M37 819h182q2 -73 39 -109t111 -36q71 0 110 34t39 97q0 64 -45 96.5t-135 32.5h-29v119h21q83 0 122.5 28.5t39.5 87.5q0 50 -34 79.5t-91 29.5q-63 0 -97 -33.5t-34 -95.5v-6h-178q3 131 84.5 200.5t232.5 69.5q142 0 224.5 -62t82.5 -169q0 -56 -28.5 -98.5
t-84.5 -69.5q73 -29 110.5 -80.5t37.5 -120.5q0 -130 -93.5 -205.5t-254.5 -75.5q-159 0 -245.5 74t-86.5 209v4z" />
    <glyph glyph-name="onequarter" unicode="&#xbc;" horiz-adv-x="1806" 
d="M1483 297v342l-240 -342h240zM1483 0v174h-381v139l334 465h223v-477h104v-127h-104v-174h-176zM385 -41l870 1493h164l-872 -1493h-162zM317 612v549h-215v113h15q118 0 171.5 32t63.5 107h144v-801h-179z" />
    <glyph glyph-name="onehalf" unicode="&#xbd;" horiz-adv-x="1806" 
d="M1102 0q3 109 53.5 183.5t177.5 150.5q20 11 55 31q173 97 173 188q0 53 -36 84t-98 31q-68 0 -105.5 -38t-37.5 -108v-8h-166q0 138 83 212.5t237 74.5q140 0 223.5 -67t83.5 -179q0 -80 -43.5 -138.5t-169.5 -133.5q-27 -16 -74 -43q-117 -67 -132 -103h409v-137h-633z
M385 -41l870 1493h164l-872 -1493h-162zM317 612v549h-215v113h15q118 0 171.5 32t63.5 107h144v-801h-179z" />
    <glyph glyph-name="threequarters" unicode="&#xbe;" horiz-adv-x="1804" 
d="M1483 297v342l-240 -342h240zM1483 0v174h-381v139l334 465h223v-477h104v-127h-104v-174h-176zM385 -41l870 1493h164l-872 -1493h-162zM37 856h171q3 -68 38.5 -101.5t105.5 -33.5q68 0 105 31.5t37 91.5t-43 90.5t-127 30.5q-6 0 -15 -1t-14 -1v112h20
q79 0 116.5 26.5t37.5 82.5q0 47 -32 74.5t-87 27.5q-60 0 -92.5 -31.5t-32.5 -89.5v-6h-171q2 123 81 188.5t223 65.5q135 0 214 -58.5t79 -158.5q0 -53 -27 -92.5t-81 -65.5q70 -27 105.5 -74.5t35.5 -113.5q0 -120 -89.5 -190t-242.5 -70q-152 0 -233.5 68.5t-81.5 195.5
v2z" />
    <glyph glyph-name="franc" unicode="&#x20a3;" horiz-adv-x="2011" 
d="M152 0v1473h1028v-256h-729v-334h639v-256h-639v-627h-299zM1352 0v1087h270v-186q57 112 133 164.5t181 52.5q17 0 26.5 -0.5t15.5 -1.5l1 -295h-97q-119 0 -179 -62t-60 -184v-575h-291z" />
    <glyph glyph-name="Gbreve" unicode="&#x11e;" horiz-adv-x="1591" 
d="M1212 174q-82 -111 -186.5 -163t-245.5 -52q-309 0 -500.5 214.5t-191.5 563.5q0 352 191 563t509 211q277 0 452 -132.5t208 -364.5h-309q-28 115 -114.5 175t-225.5 60q-185 0 -290.5 -135.5t-105.5 -374.5q0 -240 110 -376t302 -136q144 0 241 85t120 233h-334v252
h610v-797h-203zM488 1937h123q6 -76 50.5 -111.5t135.5 -35.5q90 0 134 35t50 112h123q-11 -156 -85 -229.5t-222 -73.5q-147 0 -222.5 74t-86.5 229z" />
    <glyph glyph-name="gbreve" unicode="&#x11f;" horiz-adv-x="1249" 
d="M365 561q0 -153 61.5 -235t175.5 -82q115 0 175.5 82t60.5 239q0 149 -62.5 230.5t-177.5 81.5q-111 0 -172 -83t-61 -233zM102 -105l318 1q14 -55 57.5 -82t116.5 -27q136 0 190 57.5t54 212.5v97q-46 -79 -119.5 -116.5t-183.5 -37.5q-211 0 -338 150.5t-127 400.5
q0 264 124.5 419.5t335.5 155.5q110 0 187.5 -42t126.5 -128v131h276v-1015q0 -171 -32 -261t-109 -151q-66 -51 -167.5 -77.5t-231.5 -26.5q-218 0 -343 89t-135 250zM316 1552h123q6 -76 50.5 -111.5t135.5 -35.5q90 0 134 35t50 112h123q-11 -156 -85 -229.5t-222 -73.5
q-147 0 -222.5 74t-86.5 229z" />
    <glyph glyph-name="Idotaccent" unicode="&#x130;" horiz-adv-x="629" 
d="M162 0v1473h303v-1473h-303zM198 1655v258h236v-258h-236z" />
    <glyph glyph-name="Scedilla" unicode="&#x15e;" horiz-adv-x="1366" 
d="M84 455h299q17 -121 99 -179.5t237 -58.5q132 0 199 47t67 139q0 134 -385 222q-5 1 -9 2q-10 2 -31 7q-206 45 -294 101q-78 50 -119 134.5t-41 199.5q0 215 146 329.5t422 114.5q258 0 403.5 -122t153.5 -344h-291q-8 107 -82 163t-211 56q-119 0 -183.5 -46.5
t-64.5 -132.5q0 -117 251 -175q68 -16 106 -25q161 -41 228.5 -64t117.5 -51q90 -50 135 -132.5t45 -197.5q0 -230 -155 -356.5t-437 -126.5q-278 0 -436 129t-170 367zM455 -438v129q80 -21 145 -32t111 -11q52 0 76 17.5t24 55.5t-28 54t-93 16q-23 0 -35 -0.5t-22 -1.5
v211h102v-90h15q117 0 176 -48t59 -143q0 -100 -66 -150t-198 -50q-51 0 -119.5 11t-146.5 32z" />
    <glyph glyph-name="scedilla" unicode="&#x15f;" horiz-adv-x="1118" 
d="M66 354h290q4 -83 60 -123.5t168 -40.5q85 0 131.5 28.5t46.5 80.5q0 74 -174 111q-71 15 -113 26q-212 54 -294.5 128t-82.5 200q0 167 120.5 264.5t326.5 97.5q218 0 342.5 -97t132.5 -273h-283q-3 69 -52.5 107t-137.5 38q-83 0 -123.5 -25t-40.5 -75q0 -65 217 -115
q50 -11 79 -18q217 -51 296.5 -123t79.5 -203q0 -185 -130.5 -282t-379.5 -97q-225 0 -352 101t-127 278v12zM330 -438v129q80 -21 145 -32t111 -11q52 0 76 17.5t24 55.5t-28 54t-93 16q-23 0 -35 -0.5t-22 -1.5v211h102v-90h15q117 0 176 -48t59 -143q0 -100 -66 -150
t-198 -50q-51 0 -119.5 11t-146.5 32z" />
    <glyph glyph-name="Cacute" unicode="&#x106;" horiz-adv-x="1524" 
d="M1434 506q-17 -251 -193.5 -399t-460.5 -148q-327 0 -508.5 204t-181.5 572q0 376 185 576t532 200q282 0 445.5 -137.5t179.5 -388.5h-299q-19 125 -102 190.5t-224 65.5q-200 0 -304 -129t-104 -377q0 -240 103.5 -371t294.5 -131q138 0 226 70.5t114 202.5h297z
M1088 1972l-313 -370h-142l197 370h258z" />
    <glyph glyph-name="cacute" unicode="&#x107;" horiz-adv-x="1128" 
d="M784 410h287q-18 -207 -151 -327t-342 -120q-237 0 -371.5 154.5t-134.5 427.5q0 272 137.5 426.5t378.5 154.5q211 0 338.5 -112t142.5 -312h-289q-12 87 -61 133t-129 46q-108 0 -161.5 -85t-53.5 -255q0 -157 55.5 -241.5t159.5 -84.5q81 0 130 49t64 146zM879 1587
l-313 -370h-142l197 370h258z" />
    <glyph glyph-name="Ccaron" unicode="&#x10c;" horiz-adv-x="1524" 
d="M1434 506q-17 -251 -193.5 -399t-460.5 -148q-327 0 -508.5 204t-181.5 572q0 376 185 576t532 200q282 0 445.5 -137.5t179.5 -388.5h-299q-19 125 -102 190.5t-224 65.5q-200 0 -304 -129t-104 -377q0 -240 103.5 -371t294.5 -131q138 0 226 70.5t114 202.5h297z
M480 1972h139l176 -219l174 219h141l-196 -370h-238z" />
    <glyph glyph-name="ccaron" unicode="&#x10d;" horiz-adv-x="1128" 
d="M784 410h287q-18 -207 -151 -327t-342 -120q-237 0 -371.5 154.5t-134.5 427.5q0 272 137.5 426.5t378.5 154.5q211 0 338.5 -112t142.5 -312h-289q-12 87 -61 133t-129 46q-108 0 -161.5 -85t-53.5 -255q0 -157 55.5 -241.5t159.5 -84.5q81 0 130 49t64 146zM271 1587
h139l176 -219l174 219h141l-196 -370h-238z" />
    <glyph glyph-name="dcroat" unicode="&#x111;" horiz-adv-x="1266" 
d="M1126 1473v-109h140v-162h-140v-1202h-276v147q-65 -96 -142.5 -140t-183.5 -44q-200 0 -325 159.5t-125 416.5q0 260 125.5 422.5t320.5 162.5q105 0 187.5 -44t136.5 -128v250h-324v162h324v109h282zM365 551q0 -165 61.5 -251.5t179.5 -86.5q116 0 177 86t61 252
q0 153 -64 237t-180 84q-109 0 -172 -86t-63 -235z" />
    <glyph glyph-name="sfthyphen" unicode="&#xad;" horiz-adv-x="684" 
d="M61 408v274h562v-274h-562z" />
    <glyph glyph-name="periodcentered" unicode="&#x2219;" horiz-adv-x="582" 
d="M135 702q0 65 45.5 110.5t110.5 45.5t110 -45t45 -111q0 -65 -45 -110t-110 -45q-66 0 -111 44.5t-45 110.5z" />
    <hkern u1="&#x2d;" u2="Y" k="149" />
    <hkern u1="&#x2d;" u2="X" k="73" />
    <hkern u1="&#x2d;" u2="W" k="112" />
    <hkern u1="&#x2d;" u2="V" k="112" />
    <hkern u1="&#x2d;" u2="T" k="73" />
    <hkern u1="A" u2="&#x201d;" k="225" />
    <hkern u1="A" u2="y" k="26" />
    <hkern u1="A" u2="w" k="26" />
    <hkern u1="A" u2="v" k="26" />
    <hkern u1="A" u2="Y" k="120" />
    <hkern u1="A" u2="W" k="36" />
    <hkern u1="A" u2="V" k="36" />
    <hkern u1="A" u2="U" k="36" />
    <hkern u1="A" u2="T" k="73" />
    <hkern u1="A" u2="&#x3b;" k="-38" />
    <hkern u1="A" u2="&#x3a;" k="-38" />
    <hkern u1="A" u2="&#x2e;" k="-38" />
    <hkern u1="A" u2="&#x2c;" k="-38" />
    <hkern u1="B" u2="&#x152;" k="-18" />
    <hkern u1="B" u2="&#xd8;" k="-18" />
    <hkern u1="B" u2="Y" k="73" />
    <hkern u1="B" u2="W" k="36" />
    <hkern u1="B" u2="V" k="36" />
    <hkern u1="B" u2="S" k="-18" />
    <hkern u1="B" u2="O" k="-18" />
    <hkern u1="B" u2="G" k="-18" />
    <hkern u1="B" u2="C" k="-18" />
    <hkern u1="B" u2="&#x2d;" k="-38" />
    <hkern u1="C" u2="&#x201d;" k="-75" />
    <hkern u1="C" u2="S" k="-38" />
    <hkern u1="C" u2="&#x3b;" k="-38" />
    <hkern u1="C" u2="&#x3a;" k="-38" />
    <hkern u1="C" u2="&#x2d;" k="-47" />
    <hkern u1="D" u2="&#xc5;" k="16" />
    <hkern u1="D" u2="Y" k="30" />
    <hkern u1="D" u2="W" k="-18" />
    <hkern u1="D" u2="V" k="16" />
    <hkern u1="D" u2="A" k="16" />
    <hkern u1="D" u2="&#x2e;" k="73" />
    <hkern u1="D" u2="&#x2d;" k="-38" />
    <hkern u1="D" u2="&#x2c;" k="73" />
    <hkern u1="E" u2="&#x2e;" k="-18" />
    <hkern u1="E" u2="&#x2d;" k="36" />
    <hkern u1="E" u2="&#x2c;" k="-18" />
    <hkern u1="F" u2="&#x201d;" k="-38" />
    <hkern u1="F" u2="&#x153;" k="45" />
    <hkern u1="F" u2="&#xf8;" k="45" />
    <hkern u1="F" u2="&#xe6;" k="45" />
    <hkern u1="F" u2="&#xc5;" k="83" />
    <hkern u1="F" u2="u" k="45" />
    <hkern u1="F" u2="r" k="36" />
    <hkern u1="F" u2="o" k="45" />
    <hkern u1="F" u2="e" k="45" />
    <hkern u1="F" u2="a" k="45" />
    <hkern u1="F" u2="T" k="-38" />
    <hkern u1="F" u2="A" k="83" />
    <hkern u1="F" u2="&#x3b;" k="73" />
    <hkern u1="F" u2="&#x3a;" k="73" />
    <hkern u1="F" u2="&#x2e;" k="311" />
    <hkern u1="F" u2="&#x2d;" k="36" />
    <hkern u1="F" u2="&#x2c;" k="311" />
    <hkern u1="G" u2="Y" k="36" />
    <hkern u1="G" u2="W" k="16" />
    <hkern u1="G" u2="T" k="36" />
    <hkern u1="J" u2="&#x2e;" k="26" />
    <hkern u1="J" u2="&#x2c;" k="26" />
    <hkern u1="K" u2="&#x153;" k="36" />
    <hkern u1="K" u2="&#x152;" k="55" />
    <hkern u1="K" u2="&#xf8;" k="36" />
    <hkern u1="K" u2="&#xd8;" k="55" />
    <hkern u1="K" u2="&#xc5;" k="16" />
    <hkern u1="K" u2="y" k="55" />
    <hkern u1="K" u2="u" k="36" />
    <hkern u1="K" u2="o" k="36" />
    <hkern u1="K" u2="e" k="36" />
    <hkern u1="K" u2="Y" k="92" />
    <hkern u1="K" u2="W" k="36" />
    <hkern u1="K" u2="U" k="73" />
    <hkern u1="K" u2="O" k="55" />
    <hkern u1="K" u2="C" k="55" />
    <hkern u1="K" u2="A" k="16" />
    <hkern u1="K" u2="&#x2e;" k="-38" />
    <hkern u1="K" u2="&#x2d;" k="112" />
    <hkern u1="K" u2="&#x2c;" k="-38" />
    <hkern u1="L" u2="&#x201d;" k="452" />
    <hkern u1="L" u2="&#x152;" k="73" />
    <hkern u1="L" u2="&#xd8;" k="73" />
    <hkern u1="L" u2="y" k="36" />
    <hkern u1="L" u2="Y" k="225" />
    <hkern u1="L" u2="W" k="63" />
    <hkern u1="L" u2="V" k="149" />
    <hkern u1="L" u2="U" k="36" />
    <hkern u1="L" u2="T" k="167" />
    <hkern u1="L" u2="O" k="73" />
    <hkern u1="L" u2="&#x2e;" k="-57" />
    <hkern u1="L" u2="&#x2d;" k="112" />
    <hkern u1="L" u2="&#x2c;" k="-57" />
    <hkern u1="N" u2="&#x3b;" k="36" />
    <hkern u1="N" u2="&#x3a;" k="36" />
    <hkern u1="O" u2="Y" k="36" />
    <hkern u1="O" u2="X" k="36" />
    <hkern u1="O" u2="V" k="16" />
    <hkern u1="O" u2="&#x2e;" k="63" />
    <hkern u1="O" u2="&#x2d;" k="-38" />
    <hkern u1="O" u2="&#x2c;" k="63" />
    <hkern u1="P" u2="&#x201d;" k="-38" />
    <hkern u1="P" u2="&#x153;" k="36" />
    <hkern u1="P" u2="&#xf8;" k="36" />
    <hkern u1="P" u2="&#xe6;" k="55" />
    <hkern u1="P" u2="&#xc5;" k="131" />
    <hkern u1="P" u2="y" k="-18" />
    <hkern u1="P" u2="u" k="-18" />
    <hkern u1="P" u2="s" k="36" />
    <hkern u1="P" u2="o" k="36" />
    <hkern u1="P" u2="e" k="36" />
    <hkern u1="P" u2="a" k="55" />
    <hkern u1="P" u2="Y" k="16" />
    <hkern u1="P" u2="W" k="-18" />
    <hkern u1="P" u2="A" k="131" />
    <hkern u1="P" u2="&#x3b;" k="16" />
    <hkern u1="P" u2="&#x3a;" k="16" />
    <hkern u1="P" u2="&#x2e;" k="434" />
    <hkern u1="P" u2="&#x2d;" k="131" />
    <hkern u1="P" u2="&#x2c;" k="434" />
    <hkern u1="Q" u2="&#x2e;" k="45" />
    <hkern u1="Q" u2="&#x2d;" k="-38" />
    <hkern u1="Q" u2="&#x2c;" k="45" />
    <hkern u1="R" u2="y" k="-18" />
    <hkern u1="R" u2="&#x2e;" k="-18" />
    <hkern u1="R" u2="&#x2c;" k="-18" />
    <hkern u1="S" u2="S" k="-38" />
    <hkern u1="S" u2="&#x2d;" k="-38" />
    <hkern u1="T" u2="&#x153;" k="253" />
    <hkern u1="T" u2="&#xf8;" k="253" />
    <hkern u1="T" u2="&#xe6;" k="253" />
    <hkern u1="T" u2="&#xc5;" k="73" />
    <hkern u1="T" u2="y" k="206" />
    <hkern u1="T" u2="w" k="206" />
    <hkern u1="T" u2="u" k="167" />
    <hkern u1="T" u2="s" k="178" />
    <hkern u1="T" u2="r" k="178" />
    <hkern u1="T" u2="o" k="253" />
    <hkern u1="T" u2="i" k="26" />
    <hkern u1="T" u2="e" k="253" />
    <hkern u1="T" u2="c" k="253" />
    <hkern u1="T" u2="a" k="253" />
    <hkern u1="T" u2="T" k="-47" />
    <hkern u1="T" u2="C" k="16" />
    <hkern u1="T" u2="A" k="73" />
    <hkern u1="T" u2="&#x3b;" k="264" />
    <hkern u1="T" u2="&#x3a;" k="264" />
    <hkern u1="T" u2="&#x2e;" k="282" />
    <hkern u1="T" u2="&#x2d;" k="282" />
    <hkern u1="T" u2="&#x2c;" k="282" />
    <hkern u1="U" u2="&#xc5;" k="36" />
    <hkern u1="U" u2="A" k="36" />
    <hkern u1="U" u2="&#x3b;" k="16" />
    <hkern u1="U" u2="&#x3a;" k="16" />
    <hkern u1="U" u2="&#x2e;" k="73" />
    <hkern u1="U" u2="&#x2c;" k="73" />
    <hkern u1="V" u2="&#x201d;" k="-38" />
    <hkern u1="V" u2="&#x153;" k="92" />
    <hkern u1="V" u2="&#xf8;" k="92" />
    <hkern u1="V" u2="&#xe6;" k="92" />
    <hkern u1="V" u2="&#xc5;" k="36" />
    <hkern u1="V" u2="u" k="55" />
    <hkern u1="V" u2="o" k="92" />
    <hkern u1="V" u2="i" k="16" />
    <hkern u1="V" u2="e" k="92" />
    <hkern u1="V" u2="a" k="92" />
    <hkern u1="V" u2="A" k="36" />
    <hkern u1="V" u2="&#x3b;" k="73" />
    <hkern u1="V" u2="&#x3a;" k="73" />
    <hkern u1="V" u2="&#x2e;" k="264" />
    <hkern u1="V" u2="&#x2d;" k="149" />
    <hkern u1="V" u2="&#x2c;" k="264" />
    <hkern u1="W" u2="&#x201d;" k="-18" />
    <hkern u1="W" u2="&#x153;" k="55" />
    <hkern u1="W" u2="&#xf8;" k="55" />
    <hkern u1="W" u2="&#xe6;" k="55" />
    <hkern u1="W" u2="&#xc5;" k="36" />
    <hkern u1="W" u2="r" k="16" />
    <hkern u1="W" u2="o" k="55" />
    <hkern u1="W" u2="i" k="-18" />
    <hkern u1="W" u2="e" k="55" />
    <hkern u1="W" u2="a" k="55" />
    <hkern u1="W" u2="A" k="36" />
    <hkern u1="W" u2="&#x3b;" k="45" />
    <hkern u1="W" u2="&#x3a;" k="45" />
    <hkern u1="W" u2="&#x2e;" k="167" />
    <hkern u1="W" u2="&#x2d;" k="73" />
    <hkern u1="W" u2="&#x2c;" k="167" />
    <hkern u1="X" u2="&#x152;" k="36" />
    <hkern u1="X" u2="&#xd8;" k="36" />
    <hkern u1="X" u2="e" k="55" />
    <hkern u1="X" u2="O" k="36" />
    <hkern u1="X" u2="C" k="36" />
    <hkern u1="X" u2="&#x3b;" k="36" />
    <hkern u1="X" u2="&#x3a;" k="36" />
    <hkern u1="X" u2="&#x2e;" k="-38" />
    <hkern u1="X" u2="&#x2d;" k="149" />
    <hkern u1="X" u2="&#x2c;" k="-38" />
    <hkern u1="Y" u2="&#x201d;" k="-18" />
    <hkern u1="Y" u2="&#x153;" k="188" />
    <hkern u1="Y" u2="&#x152;" k="36" />
    <hkern u1="Y" u2="&#xf8;" k="188" />
    <hkern u1="Y" u2="&#xe6;" k="188" />
    <hkern u1="Y" u2="&#xd8;" k="36" />
    <hkern u1="Y" u2="&#xc5;" k="120" />
    <hkern u1="Y" u2="u" k="149" />
    <hkern u1="Y" u2="o" k="188" />
    <hkern u1="Y" u2="e" k="188" />
    <hkern u1="Y" u2="a" k="188" />
    <hkern u1="Y" u2="O" k="36" />
    <hkern u1="Y" u2="C" k="36" />
    <hkern u1="Y" u2="A" k="120" />
    <hkern u1="Y" u2="&#x3b;" k="196" />
    <hkern u1="Y" u2="&#x3a;" k="196" />
    <hkern u1="Y" u2="&#x2e;" k="339" />
    <hkern u1="Y" u2="&#x2d;" k="206" />
    <hkern u1="Y" u2="&#x2c;" k="339" />
    <hkern u1="Z" u2="&#x3b;" k="-18" />
    <hkern u1="Z" u2="&#x3a;" k="-18" />
    <hkern u1="Z" u2="&#x2e;" k="-38" />
    <hkern u1="Z" u2="&#x2d;" k="73" />
    <hkern u1="Z" u2="&#x2c;" k="-38" />
    <hkern u1="f" u2="&#x201d;" k="-57" />
    <hkern u1="f" u2="&#x2e;" k="36" />
    <hkern u1="f" u2="&#x2d;" k="36" />
    <hkern u1="f" u2="&#x2c;" k="36" />
    <hkern u1="k" u2="&#x2d;" k="73" />
    <hkern u1="r" u2="&#x201d;" k="-18" />
    <hkern u1="r" u2="&#x2e;" k="188" />
    <hkern u1="r" u2="&#x2d;" k="36" />
    <hkern u1="r" u2="&#x2c;" k="188" />
    <hkern u1="v" u2="&#x2e;" k="131" />
    <hkern u1="v" u2="&#x2c;" k="131" />
    <hkern u1="w" u2="&#x2e;" k="131" />
    <hkern u1="w" u2="&#x2c;" k="131" />
    <hkern u1="x" u2="&#x2d;" k="73" />
    <hkern u1="y" u2="&#x2e;" k="139" />
    <hkern u1="y" u2="&#x2d;" k="16" />
    <hkern u1="y" u2="&#x2c;" k="139" />
    <hkern u1="&#xc5;" u2="&#x201d;" k="225" />
    <hkern u1="&#xc5;" u2="y" k="26" />
    <hkern u1="&#xc5;" u2="w" k="26" />
    <hkern u1="&#xc5;" u2="v" k="26" />
    <hkern u1="&#xc5;" u2="Y" k="120" />
    <hkern u1="&#xc5;" u2="W" k="36" />
    <hkern u1="&#xc5;" u2="V" k="36" />
    <hkern u1="&#xc5;" u2="U" k="36" />
    <hkern u1="&#xc5;" u2="T" k="73" />
    <hkern u1="&#xc5;" u2="&#x3a;" k="-38" />
    <hkern u1="&#xc5;" u2="&#x2e;" k="-38" />
    <hkern u1="&#xc6;" u2="&#x2e;" k="-18" />
    <hkern u1="&#xc6;" u2="&#x2d;" k="36" />
    <hkern u1="&#xd8;" u2="Y" k="36" />
    <hkern u1="&#xd8;" u2="X" k="36" />
    <hkern u1="&#xd8;" u2="V" k="16" />
    <hkern u1="&#xd8;" u2="&#x2e;" k="63" />
    <hkern u1="&#xd8;" u2="&#x2d;" k="-38" />
    <hkern u1="&#x152;" u2="&#x2e;" k="-18" />
    <hkern u1="&#x152;" u2="&#x2d;" k="36" />
    <hkern u1="&#x201c;" u2="&#xc6;" k="225" />
    <hkern u1="&#x201c;" u2="&#xc5;" k="225" />
    <hkern u1="&#x201c;" u2="J" k="452" />
    <hkern u1="&#x201c;" u2="A" k="225" />
    <hkern u1="&#x141;" u2="&#x201d;" k="452" />
    <hkern u1="&#x141;" u2="y" k="36" />
    <hkern u1="&#x141;" u2="Y" k="225" />
    <hkern u1="&#x141;" u2="W" k="63" />
    <hkern u1="&#x141;" u2="V" k="149" />
    <hkern u1="&#x141;" u2="U" k="36" />
    <hkern u1="&#x141;" u2="T" k="167" />
    <hkern u1="&#x141;" u2="O" k="73" />
    <hkern u1="&#x141;" u2="&#x2e;" k="-57" />
    <hkern u1="&#x141;" u2="&#x2d;" k="112" />
    <hkern u1="&#xd0;" u2="Y" k="30" />
    <hkern u1="&#xd0;" u2="W" k="-18" />
    <hkern u1="&#xd0;" u2="V" k="16" />
    <hkern u1="&#xd0;" u2="A" k="16" />
    <hkern u1="&#xd0;" u2="&#x2e;" k="73" />
    <hkern u1="&#xd0;" u2="&#x2d;" k="-38" />
    <hkern u1="&#xf0;" u2="&#x2e;" k="-18" />
    <hkern u1="&#xf0;" u2="&#x2c;" k="-18" />
    <hkern u1="&#xde;" u2="&#x2e;" k="131" />
    <hkern u1="&#xde;" u2="&#x2d;" k="-75" />
    <hkern u1="&#xde;" u2="&#x2c;" k="131" />
    <hkern u1="&#xfe;" u2="&#x2e;" k="-18" />
    <hkern u1="&#xfe;" u2="&#x2c;" k="-18" />
  </font>
</defs></svg>
